workspace/Abel/multip/sim.vcd
$date
  Tue Jun 09 22:27:11 2020
$end
$version
  GHDL v0
$end
$timescale
  1 fs
$end
$scope module standard $end
$upscope $end
$scope module textio $end
$upscope $end
$scope module std_logic_1164 $end
$upscope $end
$scope module pmonitor $end
$upscope $end
$scope module test_counter $end
$var reg 1 ! clk $end
$var reg 1 " init $end
$var reg 1 # check $end
$var reg 3 $ count[2:0] $end
$scope module instanta_counter $end
$var real 64 % vcc $end
$var reg 1 & clk $end
$var reg 1 ' init $end
$var reg 1 ( check $end
$var reg 3 ) q[2:0] $end
$var reg 3 * c[2:0] $end
$var reg 3 + qint[2:0] $end
$var reg 1 , initn $end
$var reg 1 - checkn $end
$var reg 1 . d0 $end
$var reg 1 / c0n $end
$var reg 1 0 net1 $end
$var reg 1 1 net2 $end
$scope module bist0 $end
$var real 64 2 vcc $end
$var reg 1 3 pre $end
$var reg 1 4 clr $end
$var reg 1 5 clk $end
$var reg 1 6 d $end
$var reg 1 7 q $end
$var reg 1 8 qbar $end
$var reg 1 9 u1out $end
$var reg 1 : u2out $end
$var reg 1 ; u3out $end
$var reg 1 < u4out $end
$var reg 1 = u5out $end
$var reg 1 > u6out $end
$var reg 1 ? u1outd $end
$var reg 1 @ u2outd $end
$var reg 1 A u3outd $end
$var reg 1 B u4outd $end
$var reg 1 C u5outd $end
$var reg 1 D u6outd $end
$scope module u1 $end
$var real 64 E vcc $end
$var reg 1 F a $end
$var reg 1 G b $end
$var reg 1 H c $end
$var reg 1 I o $end
$upscope $end
$scope module u2 $end
$var real 64 J vcc $end
$var reg 1 K a $end
$var reg 1 L b $end
$var reg 1 M c $end
$var reg 1 N o $end
$upscope $end
$scope module u3 $end
$var real 64 O vcc $end
$var reg 1 P a $end
$var reg 1 Q b $end
$var reg 1 R c $end
$var reg 1 S o $end
$upscope $end
$scope module u4 $end
$var real 64 T vcc $end
$var reg 1 U a $end
$var reg 1 V b $end
$var reg 1 W c $end
$var reg 1 X o $end
$upscope $end
$scope module u5 $end
$var real 64 Y vcc $end
$var reg 1 Z a $end
$var reg 1 [ b $end
$var reg 1 \ c $end
$var reg 1 ] o $end
$upscope $end
$scope module u6 $end
$var real 64 ^ vcc $end
$var reg 1 _ a $end
$var reg 1 ` b $end
$var reg 1 a c $end
$var reg 1 b o $end
$upscope $end
$upscope $end
$scope module bist1 $end
$var real 64 c vcc $end
$var reg 1 d pre $end
$var reg 1 e clr $end
$var reg 1 f clk $end
$var reg 1 g d $end
$var reg 1 h q $end
$var reg 1 i qbar $end
$var reg 1 j u1out $end
$var reg 1 k u2out $end
$var reg 1 l u3out $end
$var reg 1 m u4out $end
$var reg 1 n u5out $end
$var reg 1 o u6out $end
$var reg 1 p u1outd $end
$var reg 1 q u2outd $end
$var reg 1 r u3outd $end
$var reg 1 s u4outd $end
$var reg 1 t u5outd $end
$var reg 1 u u6outd $end
$scope module u1 $end
$var real 64 v vcc $end
$var reg 1 w a $end
$var reg 1 x b $end
$var reg 1 y c $end
$var reg 1 z o $end
$upscope $end
$scope module u2 $end
$var real 64 { vcc $end
$var reg 1 | a $end
$var reg 1 } b $end
$var reg 1 !" c $end
$var reg 1 "" o $end
$upscope $end
$scope module u3 $end
$var real 64 #" vcc $end
$var reg 1 $" a $end
$var reg 1 %" b $end
$var reg 1 &" c $end
$var reg 1 '" o $end
$upscope $end
$scope module u4 $end
$var real 64 (" vcc $end
$var reg 1 )" a $end
$var reg 1 *" b $end
$var reg 1 +" c $end
$var reg 1 ," o $end
$upscope $end
$scope module u5 $end
$var real 64 -" vcc $end
$var reg 1 ." a $end
$var reg 1 /" b $end
$var reg 1 0" c $end
$var reg 1 1" o $end
$upscope $end
$scope module u6 $end
$var real 64 2" vcc $end
$var reg 1 3" a $end
$var reg 1 4" b $end
$var reg 1 5" c $end
$var reg 1 6" o $end
$upscope $end
$upscope $end
$scope module bist2 $end
$var real 64 7" vcc $end
$var reg 1 8" pre $end
$var reg 1 9" clr $end
$var reg 1 :" clk $end
$var reg 1 ;" d $end
$var reg 1 <" q $end
$var reg 1 =" qbar $end
$var reg 1 >" u1out $end
$var reg 1 ?" u2out $end
$var reg 1 @" u3out $end
$var reg 1 A" u4out $end
$var reg 1 B" u5out $end
$var reg 1 C" u6out $end
$var reg 1 D" u1outd $end
$var reg 1 E" u2outd $end
$var reg 1 F" u3outd $end
$var reg 1 G" u4outd $end
$var reg 1 H" u5outd $end
$var reg 1 I" u6outd $end
$scope module u1 $end
$var real 64 J" vcc $end
$var reg 1 K" a $end
$var reg 1 L" b $end
$var reg 1 M" c $end
$var reg 1 N" o $end
$upscope $end
$scope module u2 $end
$var real 64 O" vcc $end
$var reg 1 P" a $end
$var reg 1 Q" b $end
$var reg 1 R" c $end
$var reg 1 S" o $end
$upscope $end
$scope module u3 $end
$var real 64 T" vcc $end
$var reg 1 U" a $end
$var reg 1 V" b $end
$var reg 1 W" c $end
$var reg 1 X" o $end
$upscope $end
$scope module u4 $end
$var real 64 Y" vcc $end
$var reg 1 Z" a $end
$var reg 1 [" b $end
$var reg 1 \" c $end
$var reg 1 ]" o $end
$upscope $end
$scope module u5 $end
$var real 64 ^" vcc $end
$var reg 1 _" a $end
$var reg 1 `" b $end
$var reg 1 a" c $end
$var reg 1 b" o $end
$upscope $end
$scope module u6 $end
$var real 64 c" vcc $end
$var reg 1 d" a $end
$var reg 1 e" b $end
$var reg 1 f" c $end
$var reg 1 g" o $end
$upscope $end
$upscope $end
$scope module poarta1 $end
$var real 64 h" vcc $end
$var reg 1 i" a $end
$var reg 1 j" b $end
$var reg 1 k" o $end
$upscope $end
$scope module poarta2 $end
$var real 64 l" vcc $end
$var reg 1 m" a $end
$var reg 1 n" b $end
$var reg 1 o" c $end
$var reg 1 p" o $end
$upscope $end
$scope module poarta3 $end
$var real 64 q" vcc $end
$var reg 1 r" a $end
$var reg 1 s" b $end
$var reg 1 t" c $end
$var reg 1 u" o $end
$upscope $end
$scope module inversor1 $end
$var real 64 v" vcc $end
$var reg 1 w" a $end
$var reg 1 x" o $end
$upscope $end
$scope module inversor2 $end
$var real 64 y" vcc $end
$var reg 1 z" a $end
$var reg 1 {" o $end
$upscope $end
$scope module inversor3 $end
$var real 64 |" vcc $end
$var reg 1 }" a $end
$var reg 1 !# o $end
$upscope $end
$upscope $end
$upscope $end
$enddefinitions $end
#0
0!
1"
1#
bUUU $
r3.3 %
0&
1'
1(
bUUU )
bUUU *
bUUU +
0,
0-
0.
U/
00
01
r3.3 2
13
04
05
06
U7
U8
U9
1:
1;
1<
U=
1>
U?
U@
UA
UB
UC
UD
r3.3 E
1F
UG
UH
UI
r3.3 J
UK
0L
0M
1N
r3.3 O
UP
0Q
UR
1S
r3.3 T
UU
0V
0W
1X
r3.3 Y
1Z
U[
U\
U]
r3.3 ^
U_
0`
Ua
1b
r3.3 c
1d
0e
Uf
Ug
Uh
Ui
Uj
1k
Ul
1m
Un
1o
Up
Uq
Ur
Us
Ut
Uu
r3.3 v
1w
Ux
Uy
Uz
r3.3 {
U|
0}
U!"
1""
r3.3 #"
U$"
U%"
U&"
U'"
r3.3 ("
U)"
0*"
U+"
1,"
r3.3 -"
1."
U/"
U0"
U1"
r3.3 2"
U3"
04"
U5"
16"
r3.3 7"
18"
09"
U:"
U;"
U<"
U="
U>"
1?"
U@"
1A"
UB"
1C"
UD"
UE"
UF"
UG"
UH"
UI"
r3.3 J"
1K"
UL"
UM"
UN"
r3.3 O"
UP"
0Q"
UR"
1S"
r3.3 T"
UU"
UV"
UW"
UX"
r3.3 Y"
UZ"
0["
U\"
1]"
r3.3 ^"
1_"
U`"
Ua"
Ub"
r3.3 c"
Ud"
0e"
Uf"
1g"
r3.3 h"
0i"
0j"
0k"
r3.3 l"
Um"
0n"
0o"
0p"
r3.3 q"
Ur"
0s"
1t"
0u"
r3.3 v"
1w"
0x"
r3.3 y"
1z"
0{"
r3.3 |"
U}"
U!#
#100000
b111 *
0/
18
09
0=
0?
1@
1B
1D
1G
1H
0I
0K
1N
1P
1R
1S
1[
1\
0]
1f
1g
1i
0j
0l
0n
0p
1q
1s
1u
1x
1y
0z
0|
1!"
1""
1$"
1%"
1&"
0'"
1+"
1,"
1/"
10"
01"
1:"
1;"
1="
0>"
0@"
0B"
0D"
1E"
1G"
1I"
1L"
1M"
0N"
0P"
1R"
1S"
1U"
1V"
1W"
0X"
1\"
1]"
1`"
1a"
0b"
0m"
0p"
1r"
0u"
1}"
0!#
#200000
1A
1U
1X
1a
1b
#300000
b000 $
b000 )
b000 +
07
0C
0_
1b
0h
0r
0t
0)"
1,"
03"
05"
16"
0<"
0F"
0H"
0Z"
1]"
0d"
0f"
1g"
#5000000
1!
1&
15
0;
1M
1N
1Q
0S
#5200000
0A
0U
1X
0a
1b
#10000000
0!
0&
05
1;
0M
1N
0Q
1S
#10200000
1A
1U
1X
1a
1b
#15000000
1!
1&
15
0;
1M
1N
1Q
0S
#15200000
0A
0U
1X
0a
1b
#20000000
0!
0&
05
1;
0M
1N
0Q
1S
#20200000
1A
1U
1X
1a
1b
#25000000
1!
1&
15
0;
1M
1N
1Q
0S
#25200000
0A
0U
1X
0a
1b
#30000000
0!
0&
05
1;
0M
1N
0Q
1S
#30200000
1A
1U
1X
1a
1b
#35000000
1!
1&
15
0;
1M
1N
1Q
0S
#35200000
0A
0U
1X
0a
1b
#40000000
0!
0&
05
1;
0M
1N
0Q
1S
#40200000
1A
1U
1X
1a
1b
#45000000
1!
1&
15
0;
1M
1N
1Q
0S
#45200000
0A
0U
1X
0a
1b
#50000000
0!
0&
05
1;
0M
1N
0Q
1S
#50200000
1A
1U
1X
1a
1b
#55000000
1!
0"
1&
0'
1,
1.
11
14
15
16
0;
0<
1L
1M
1N
1Q
0S
1V
1W
0X
1`
1b
1e
1}
1""
1*"
1,"
14"
16"
19"
1Q"
1S"
1["
1]"
1e"
1g"
1j"
1k"
1n"
0p"
1s"
1u"
0w"
1x"
#55100000
19
0:
1;
1?
0B
0G
1I
1K
0N
0R
1S
#55200000
1=
0@
0H
1I
0P
1S
0[
1]
#55300000
#55400000
b001 $
b001 )
b001 +
17
0>
1C
1_
0b
#55500000
b110 *
0.
1/
01
06
08
1<
0D
0W
1X
0\
1]
0f
1l
0!"
1""
0%"
1'"
0j"
0k"
1m"
0p"
0r"
0u"
0}"
1!#
#55600000
1B
1G
1I
1R
1S
#55700000
0m
1r
1)"
0,"
15"
16"
#55800000
1j
1p
0s
0x
1z
1|
1""
0&"
1'"
#60000000
0!
0&
05
1:
0M
1N
0Q
1S
#60100000
09
0?
1@
1H
0I
0K
1N
1P
1S
1[
1]
#65000000
1!
0#
1&
0(
1-
1.
10
15
16
0;
0<
1M
1N
1Q
0S
1W
0X
1i"
1k"
1o"
1p"
0t"
0u"
0z"
1{"
#65100000
19
0:
1;
1?
0B
0G
1I
1K
0N
0R
1S
#65200000
0@
0H
1I
0P
1S
0[
1]
#65300000
#70000000
0!
0&
05
1:
0M
1N
0Q
1S
#70100000
1@
1H
1I
1P
1S
1[
1]
#75000000
1!
1#
1&
1(
0-
0.
00
15
06
0:
1<
1M
0N
1Q
1S
0W
1X
0i"
0k"
0o"
0p"
1t"
0u"
1z"
0{"
#75100000
0@
1B
1G
0H
1I
0P
1R
1S
0[
1]
#80000000
0!
0&
05
1:
0M
1N
0Q
1S
#80100000
09
0?
1@
1H
0I
0K
1N
1P
1S
1[
1]
#85000000
1!
1&
15
0;
1M
1N
1Q
0S
#85200000
1>
0A
0U
1X
0a
1b
#85300000
b111 *
1.
0/
11
16
18
0=
1D
1W
1X
1\
0]
1f
0k
1!"
0""
1%"
1'"
1j"
1k"
0m"
0p"
1r"
1u"
1}"
0!#
#85400000
1n
0q
0y
1z
0$"
1'"
0/"
11"
#85500000
b000 $
b000 )
b000 +
07
0C
0_
1b
#85600000
b010 $
b010 )
b010 +
1h
0o
1t
13"
06"
#85700000
b101 *
0g
0i
1m
0u
0+"
1,"
00"
11"
0:"
1@"
0R"
1S"
0V"
1X"
#85800000
1s
1x
1z
1&"
1'"
#85900000
0A"
1F"
1Z"
0]"
1f"
1g"
#86000000
1>"
1D"
0G"
0L"
1N"
1P"
1S"
0W"
1X"
#90000000
0!
0&
05
1;
0M
1N
0Q
1S
#90200000
0<
1A
1U
0X
1a
1b
#90300000
19
1?
0B
0G
1I
1K
1N
0R
1S
#95000000
1!
1&
15
0:
1M
0N
1Q
1S
#95100000
1=
0@
0H
1I
0P
1S
0[
1]
#95300000
b011 $
b011 )
b011 +
17
0>
1C
1_
0b
#95400000
b100 *
0.
1/
01
06
08
1<
0D
0W
1X
0\
1]
0f
1k
0!"
1""
0%"
1'"
0j"
0k"
1m"
0p"
0r"
0u"
0}"
1!#
#95500000
1B
1G
1I
1R
1S
0j
0p
1q
1y
0z
0|
1""
1$"
1'"
1/"
11"
#100000000
0!
0&
05
1:
0M
1N
0Q
1S
#100100000
09
0?
1@
1H
0I
0K
1N
1P
1S
1[
1]
#105000000
1!
1&
15
0;
1M
1N
1Q
0S
#105200000
1>
0A
0U
1X
0a
1b
#105300000
b101 *
1.
0/
11
16
18
0=
1D
1W
1X
1\
0]
1f
0l
1!"
1""
1%"
0'"
1j"
1k"
0m"
0p"
1r"
1u"
1}"
0!#
#105500000
b010 $
b010 )
b010 +
07
0C
0_
1b
1o
0r
0)"
1,"
05"
16"
#105600000
b111 *
1g
1i
0n
1u
1+"
1,"
10"
01"
1:"
0?"
1R"
0S"
1V"
1X"
#105700000
1B"
0E"
0M"
1N"
0U"
1X"
0`"
1b"
#105800000
b000 $
b000 )
b000 +
0h
0t
03"
16"
#105900000
b100 $
b100 )
b100 +
1<"
0C"
1H"
1d"
0g"
#106000000
b011 *
0;"
0="
1A"
0I"
0\"
1]"
0a"
1b"
#106100000
1G"
1L"
1N"
1W"
1X"
#110000000
0!
0&
05
1;
0M
1N
0Q
1S
#110200000
0<
1A
1U
0X
1a
1b
#110300000
19
1?
0B
0G
1I
1K
1N
0R
1S
#115000000
1!
1&
15
0:
1M
0N
1Q
1S
#115100000
1=
0@
0H
1I
0P
1S
0[
1]
#115300000
b101 $
b101 )
b101 +
17
0>
1C
1_
0b
#115400000
b010 *
0.
1/
01
06
08
1<
0D
0W
1X
0\
1]
0f
1l
0!"
1""
0%"
1'"
0j"
0k"
1m"
0p"
0r"
0u"
0}"
1!#
#115500000
1B
1G
1I
1R
1S
#115600000
0m
1r
1)"
0,"
15"
16"
#115700000
1j
1p
0s
0x
1z
1|
1""
0&"
1'"
#120000000
0!
0&
05
1:
0M
1N
0Q
1S
#120100000
09
0?
1@
1H
0I
0K
1N
1P
1S
1[
1]
#125000000
1!
1&
15
0;
1M
1N
1Q
0S
#125200000
1>
0A
0U
1X
0a
1b
#125300000
b011 *
1.
0/
11
16
18
0=
1D
1W
1X
1\
0]
1f
0k
1!"
0""
1%"
1'"
1j"
1k"
0m"
0p"
1r"
1u"
1}"
0!#
#125400000
1n
0q
0y
1z
0$"
1'"
0/"
11"
#125500000
b100 $
b100 )
b100 +
07
0C
0_
1b
#125600000
b110 $
b110 )
b110 +
1h
0o
1t
13"
06"
#125700000
b001 *
0g
0i
1m
0u
0+"
1,"
00"
11"
0:"
1?"
0R"
1S"
0V"
1X"
#125800000
1s
1x
1z
1&"
1'"
0>"
0D"
1E"
1M"
0N"
0P"
1S"
1U"
1X"
1`"
1b"
#130000000
0!
0&
05
1;
0M
1N
0Q
1S
#130200000
0<
1A
1U
0X
1a
1b
#130300000
19
1?
0B
0G
1I
1K
1N
0R
1S
#135000000
1!
1&
15
0:
1M
0N
1Q
1S
#135100000
1=
0@
0H
1I
0P
1S
0[
1]
#135300000
b111 $
b111 )
b111 +
17
0>
1C
1_
0b
#135400000
b000 *
0.
1/
01
06
08
1<
0D
0W
1X
0\
1]
0f
1k
0!"
1""
0%"
1'"
0j"
0k"
1m"
0p"
0r"
0u"
0}"
1!#
#135500000
1B
1G
1I
1R
1S
0j
0p
1q
1y
0z
0|
1""
1$"
1'"
1/"
11"
#140000000
0!
0&
05
1:
0M
1N
0Q
1S
#140100000
09
0?
1@
1H
0I
0K
1N
1P
1S
1[
1]
#145000000
1!
1&
15
0;
1M
1N
1Q
0S
#145200000
1>
0A
0U
1X
0a
1b
#145300000
b001 *
1.
0/
11
16
18
0=
1D
1W
1X
1\
0]
1f
0l
1!"
1""
1%"
0'"
1j"
1k"
0m"
0p"
1r"
1u"
1}"
0!#
#145500000
b110 $
b110 )
b110 +
07
0C
0_
1b
1o
0r
0)"
1,"
05"
16"
#145600000
b011 *
1g
1i
0n
1u
1+"
1,"
10"
01"
1:"
0@"
1R"
1S"
1V"
0X"
#145800000
b100 $
b100 )
b100 +
0h
0t
03"
16"
1C"
0F"
0Z"
1]"
0f"
1g"
#145900000
b111 *
1;"
1="
0B"
1I"
1\"
1]"
1a"
0b"
#146100000
b000 $
b000 )
b000 +
0<"
0H"
0d"
1g"
#150000000
0!
0&
05
1;
0M
1N
0Q
1S
#150200000
0<
1A
1U
0X
1a
1b
#150300000
19
1?
0B
0G
1I
1K
1N
0R
1S
#155000000
1!
1&
15
0:
1M
0N
1Q
1S
#155100000
1=
0@
0H
1I
0P
1S
0[
1]
#155300000
b001 $
b001 )
b001 +
17
0>
1C
1_
0b
#155400000
b110 *
0.
1/
01
06
08
1<
0D
0W
1X
0\
1]
0f
1l
0!"
1""
0%"
1'"
0j"
0k"
1m"
0p"
0r"
0u"
0}"
1!#
#155500000
1B
1G
1I
1R
1S
#155600000
0m
1r
1)"
0,"
15"
16"
#155700000
1j
1p
0s
0x
1z
1|
1""
0&"
1'"
#160000000
0!
0&
05
1:
0M
1N
0Q
1S
#160100000
09
0?
1@
1H
0I
0K
1N
1P
1S
1[
1]
#165000000
1!
1&
15
0;
1M
1N
1Q
0S
#165200000
1>
0A
0U
1X
0a
1b
#165300000
b111 *
1.
0/
11
16
18
0=
1D
1W
1X
1\
0]
1f
0k
1!"
0""
1%"
1'"
1j"
1k"
0m"
0p"
1r"
1u"
1}"
0!#
#165400000
1n
0q
0y
1z
0$"
1'"
0/"
11"
#165500000
b000 $
b000 )
b000 +
07
0C
0_
1b
#165600000
b010 $
b010 )
b010 +
1h
0o
1t
13"
06"
#165700000
b101 *
0g
0i
1m
0u
0+"
1,"
00"
11"
0:"
1@"
0R"
1S"
0V"
1X"
#165800000
1s
1x
1z
1&"
1'"
#165900000
0A"
1F"
1Z"
0]"
1f"
1g"
#166000000
1>"
1D"
0G"
0L"
1N"
1P"
1S"
0W"
1X"
#170000000
0!
0&
05
1;
0M
1N
0Q
1S
#170200000
0<
1A
1U
0X
1a
1b
#170300000
19
1?
0B
0G
1I
1K
1N
0R
1S
#175000000
1!
1&
15
0:
1M
0N
1Q
1S
#175100000
1=
0@
0H
1I
0P
1S
0[
1]
#175300000
b011 $
b011 )
b011 +
17
0>
1C
1_
0b
#175400000
b100 *
0.
1/
01
06
08
1<
0D
0W
1X
0\
1]
0f
1k
0!"
1""
0%"
1'"
0j"
0k"
1m"
0p"
0r"
0u"
0}"
1!#
#175500000
1B
1G
1I
1R
1S
0j
0p
1q
1y
0z
0|
1""
1$"
1'"
1/"
11"
#180000000
0!
0&
05
1:
0M
1N
0Q
1S
#180100000
09
0?
1@
1H
0I
0K
1N
1P
1S
1[
1]
#185000000
1!
1&
15
0;
1M
1N
1Q
0S
#185200000
1>
0A
0U
1X
0a
1b
#185300000
b101 *
1.
0/
11
16
18
0=
1D
1W
1X
1\
0]
1f
0l
1!"
1""
1%"
0'"
1j"
1k"
0m"
0p"
1r"
1u"
1}"
0!#
#185500000
b010 $
b010 )
b010 +
07
0C
0_
1b
1o
0r
0)"
1,"
05"
16"
#185600000
b111 *
1g
1i
0n
1u
1+"
1,"
10"
01"
1:"
0?"
1R"
0S"
1V"
1X"
#185700000
1B"
0E"
0M"
1N"
0U"
1X"
0`"
1b"
#185800000
b000 $
b000 )
b000 +
0h
0t
03"
16"
#185900000
b100 $
b100 )
b100 +
1<"
0C"
1H"
1d"
0g"
#186000000
b011 *
0;"
0="
1A"
0I"
0\"
1]"
0a"
1b"
#186100000
1G"
1L"
1N"
1W"
1X"
#190000000
0!
0&
05
1;
0M
1N
0Q
1S
#190200000
0<
1A
1U
0X
1a
1b
#190300000
19
1?
0B
0G
1I
1K
1N
0R
1S
#195000000
1!
1&
15
0:
1M
0N
1Q
1S
#195100000
1=
0@
0H
1I
0P
1S
0[
1]
#195300000
b101 $
b101 )
b101 +
17
0>
1C
1_
0b
#195400000
b010 *
0.
1/
01
06
08
1<
0D
0W
1X
0\
1]
0f
1l
0!"
1""
0%"
1'"
0j"
0k"
1m"
0p"
0r"
0u"
0}"
1!#
#195500000
1B
1G
1I
1R
1S
#195600000
0m
1r
1)"
0,"
15"
16"
#195700000
1j
1p
0s
0x
1z
1|
1""
0&"
1'"
#200000000
0!
0&
05
1:
0M
1N
0Q
1S
#200100000
09
0?
1@
1H
0I
0K
1N
1P
1S
1[
1]
#205000000
1!
1&
15
0;
1M
1N
1Q
0S
#205200000
1>
0A
0U
1X
0a
1b
#205300000
b011 *
1.
0/
11
16
18
0=
1D
1W
1X
1\
0]
1f
0k
1!"
0""
1%"
1'"
1j"
1k"
0m"
0p"
1r"
1u"
1}"
0!#
#205400000
1n
0q
0y
1z
0$"
1'"
0/"
11"
#205500000
b100 $
b100 )
b100 +
07
0C
0_
1b
#205600000
b110 $
b110 )
b110 +
1h
0o
1t
13"
06"
#205700000
b001 *
0g
0i
1m
0u
0+"
1,"
00"
11"
0:"
1?"
0R"
1S"
0V"
1X"
#205800000
1s
1x
1z
1&"
1'"
0>"
0D"
1E"
1M"
0N"
0P"
1S"
1U"
1X"
1`"
1b"
#210000000
0!
0&
05
1;
0M
1N
0Q
1S
#210200000
0<
1A
1U
0X
1a
1b
#210300000
19
1?
0B
0G
1I
1K
1N
0R
1S
#215000000
1!
1&
15
0:
1M
0N
1Q
1S
#215100000
1=
0@
0H
1I
0P
1S
0[
1]
#215300000
b111 $
b111 )
b111 +
17
0>
1C
1_
0b
#215400000
b000 *
0.
1/
01
06
08
1<
0D
0W
1X
0\
1]
0f
1k
0!"
1""
0%"
1'"
0j"
0k"
1m"
0p"
0r"
0u"
0}"
1!#
#215500000
1B
1G
1I
1R
1S
0j
0p
1q
1y
0z
0|
1""
1$"
1'"
1/"
11"
#220000000
0!
0&
05
1:
0M
1N
0Q
1S
#220100000
09
0?
1@
1H
0I
0K
1N
1P
1S
1[
1]
#225000000
1!
1&
15
0;
1M
1N
1Q
0S
#225200000
1>
0A
0U
1X
0a
1b
#225300000
b001 *
1.
0/
11
16
18
0=
1D
1W
1X
1\
0]
1f
0l
1!"
1""
1%"
0'"
1j"
1k"
0m"
0p"
1r"
1u"
1}"
0!#
#225500000
b110 $
b110 )
b110 +
07
0C
0_
1b
1o
0r
0)"
1,"
05"
16"
#225600000
b011 *
1g
1i
0n
1u
1+"
1,"
10"
01"
1:"
0@"
1R"
1S"
1V"
0X"
#225800000
b100 $
b100 )
b100 +
0h
0t
03"
16"
1C"
0F"
0Z"
1]"
0f"
1g"
#225900000
b111 *
1;"
1="
0B"
1I"
1\"
1]"
1a"
0b"
#226100000
b000 $
b000 )
b000 +
0<"
0H"
0d"
1g"
#230000000
0!
0&
05
1;
0M
1N
0Q
1S
#230200000
0<
1A
1U
0X
1a
1b
#230300000
19
1?
0B
0G
1I
1K
1N
0R
1S
#235000000
1!
1&
15
0:
1M
0N
1Q
1S
#235100000
1=
0@
0H
1I
0P
1S
0[
1]
#235300000
b001 $
b001 )
b001 +
17
0>
1C
1_
0b
#235400000
b110 *
0.
1/
01
06
08
1<
0D
0W
1X
0\
1]
0f
1l
0!"
1""
0%"
1'"
0j"
0k"
1m"
0p"
0r"
0u"
0}"
1!#
#235500000
1B
1G
1I
1R
1S
#235600000
0m
1r
1)"
0,"
15"
16"
#235700000
1j
1p
0s
0x
1z
1|
1""
0&"
1'"
#240000000
0!
0&
05
1:
0M
1N
0Q
1S
#240100000
09
0?
1@
1H
0I
0K
1N
1P
1S
1[
1]
#245000000
1!
1&
15
0;
1M
1N
1Q
0S
#245200000
1>
0A
0U
1X
0a
1b
#245300000
b111 *
1.
0/
11
16
18
0=
1D
1W
1X
1\
0]
1f
0k
1!"
0""
1%"
1'"
1j"
1k"
0m"
0p"
1r"
1u"
1}"
0!#
#245400000
1n
0q
0y
1z
0$"
1'"
0/"
11"
#245500000
b000 $
b000 )
b000 +
07
0C
0_
1b
#245600000
b010 $
b010 )
b010 +
1h
0o
1t
13"
06"
#245700000
b101 *
0g
0i
1m
0u
0+"
1,"
00"
11"
0:"
1@"
0R"
1S"
0V"
1X"
#245800000
1s
1x
1z
1&"
1'"
#245900000
0A"
1F"
1Z"
0]"
1f"
1g"
#246000000
1>"
1D"
0G"
0L"
1N"
1P"
1S"
0W"
1X"
#250000000
0!
0&
05
1;
0M
1N
0Q
1S
#250200000
0<
1A
1U
0X
1a
1b
#250300000
19
1?
0B
0G
1I
1K
1N
0R
1S
#255000000
1!
1&
15
0:
1M
0N
1Q
1S
#255100000
1=
0@
0H
1I
0P
1S
0[
1]
#255300000
b011 $
b011 )
b011 +
17
0>
1C
1_
0b
#255400000
b100 *
0.
1/
01
06
08
1<
0D
0W
1X
0\
1]
0f
1k
0!"
1""
0%"
1'"
0j"
0k"
1m"
0p"
0r"
0u"
0}"
1!#
#255500000
1B
1G
1I
1R
1S
0j
0p
1q
1y
0z
0|
1""
1$"
1'"
1/"
11"
#260000000
0!
0&
05
1:
0M
1N
0Q
1S
#260100000
09
0?
1@
1H
0I
0K
1N
1P
1S
1[
1]
#265000000
1!
1&
15
0;
1M
1N
1Q
0S
#265200000
1>
0A
0U
1X
0a
1b
#265300000
b101 *
1.
0/
11
16
18
0=
1D
1W
1X
1\
0]
1f
0l
1!"
1""
1%"
0'"
1j"
1k"
0m"
0p"
1r"
1u"
1}"
0!#
#265500000
b010 $
b010 )
b010 +
07
0C
0_
1b
1o
0r
0)"
1,"
05"
16"
#265600000
b111 *
1g
1i
0n
1u
1+"
1,"
10"
01"
1:"
0?"
1R"
0S"
1V"
1X"
#265700000
1B"
0E"
0M"
1N"
0U"
1X"
0`"
1b"
#265800000
b000 $
b000 )
b000 +
0h
0t
03"
16"
#265900000
b100 $
b100 )
b100 +
1<"
0C"
1H"
1d"
0g"
#266000000
b011 *
0;"
0="
1A"
0I"
0\"
1]"
0a"
1b"
#266100000
1G"
1L"
1N"
1W"
1X"
#270000000
0!
0&
05
1;
0M
1N
0Q
1S
#270200000
0<
1A
1U
0X
1a
1b
#270300000
19
1?
0B
0G
1I
1K
1N
0R
1S
#275000000
1!
1&
15
0:
1M
0N
1Q
1S
#275100000
1=
0@
0H
1I
0P
1S
0[
1]
#275300000
b101 $
b101 )
b101 +
17
0>
1C
1_
0b
#275400000
b010 *
0.
1/
01
06
08
1<
0D
0W
1X
0\
1]
0f
1l
0!"
1""
0%"
1'"
0j"
0k"
1m"
0p"
0r"
0u"
0}"
1!#
#275500000
1B
1G
1I
1R
1S
#275600000
0m
1r
1)"
0,"
15"
16"
#275700000
1j
1p
0s
0x
1z
1|
1""
0&"
1'"
#280000000
0!
0&
05
1:
0M
1N
0Q
1S
#280100000
09
0?
1@
1H
0I
0K
1N
1P
1S
1[
1]
#285000000
1!
1&
15
0;
1M
1N
1Q
0S
#285200000
1>
0A
0U
1X
0a
1b
#285300000
b011 *
1.
0/
11
16
18
0=
1D
1W
1X
1\
0]
1f
0k
1!"
0""
1%"
1'"
1j"
1k"
0m"
0p"
1r"
1u"
1}"
0!#
#285400000
1n
0q
0y
1z
0$"
1'"
0/"
11"
#285500000
b100 $
b100 )
b100 +
07
0C
0_
1b
#285600000
b110 $
b110 )
b110 +
1h
0o
1t
13"
06"
#285700000
b001 *
0g
0i
1m
0u
0+"
1,"
00"
11"
0:"
1?"
0R"
1S"
0V"
1X"
#285800000
1s
1x
1z
1&"
1'"
0>"
0D"
1E"
1M"
0N"
0P"
1S"
1U"
1X"
1`"
1b"
#290000000
0!
0&
05
1;
0M
1N
0Q
1S
#290200000
0<
1A
1U
0X
1a
1b
#290300000
19
1?
0B
0G
1I
1K
1N
0R
1S
#295000000
1!
1&
15
0:
1M
0N
1Q
1S
#295100000
1=
0@
0H
1I
0P
1S
0[
1]
#295300000
b111 $
b111 )
b111 +
17
0>
1C
1_
0b
#295400000
b000 *
0.
1/
01
06
08
1<
0D
0W
1X
0\
1]
0f
1k
0!"
1""
0%"
1'"
0j"
0k"
1m"
0p"
0r"
0u"
0}"
1!#
#295500000
1B
1G
1I
1R
1S
0j
0p
1q
1y
0z
0|
1""
1$"
1'"
1/"
11"
#300000000
0!
0&
05
1:
0M
1N
0Q
1S
#300100000
09
0?
1@
1H
0I
0K
1N
1P
1S
1[
1]
#305000000
1!
1&
15
0;
1M
1N
1Q
0S
#305200000
1>
0A
0U
1X
0a
1b
#305300000
b001 *
1.
0/
11
16
18
0=
1D
1W
1X
1\
0]
1f
0l
1!"
1""
1%"
0'"
1j"
1k"
0m"
0p"
1r"
1u"
1}"
0!#
#305500000
b110 $
b110 )
b110 +
07
0C
0_
1b
1o
0r
0)"
1,"
05"
16"
#305600000
b011 *
1g
1i
0n
1u
1+"
1,"
10"
01"
1:"
0@"
1R"
1S"
1V"
0X"
#305800000
b100 $
b100 )
b100 +
0h
0t
03"
16"
1C"
0F"
0Z"
1]"
0f"
1g"
#305900000
b111 *
1;"
1="
0B"
1I"
1\"
1]"
1a"
0b"
#306100000
b000 $
b000 )
b000 +
0<"
0H"
0d"
1g"
#310000000
0!
0&
05
1;
0M
1N
0Q
1S
#310200000
0<
1A
1U
0X
1a
1b
