workspace/Abel/multip/sim.vcd
$date
  Fri Jun 19 21:04:53 2020
$end
$version
  GHDL v0
$end
$timescale
  1 fs
$end
$scope module standard $end
$upscope $end
$scope module textio $end
$upscope $end
$scope module std_logic_1164 $end
$upscope $end
$scope module pmonitor $end
$upscope $end
$scope module test_automat $end
$var reg 1 ! clk $end
$var reg 1 " clr $end
$var reg 1 # v $end
$var reg 1 $ lsb $end
$var reg 1 % start $end
$var reg 3 & count[2:0] $end
$scope module instanta_automat $end
$var real 64 ' vcc $end
$var reg 1 ( clk $end
$var reg 1 ) clr $end
$var reg 1 * v $end
$var reg 1 + lsb $end
$var reg 1 , start $end
$var reg 1 - q2 $end
$var reg 1 . q1 $end
$var reg 1 / q0 $end
$var reg 1 0 qbar2 $end
$var reg 1 1 qbar1 $end
$var reg 1 2 qbar0 $end
$var reg 1 3 vbar $end
$var reg 1 4 out_poarta $end
$var reg 1 5 out_poarta_a $end
$var reg 1 6 out_poarta_b $end
$var reg 1 7 out_poarta_c $end
$var reg 1 8 out_poarta_d $end
$var reg 1 9 out_poarta_1 $end
$var reg 1 : out_poarta_2 $end
$var reg 1 ; out_poarta_3 $end
$var reg 1 < out_poarta_4 $end
$var reg 1 = out_poarta_5 $end
$var reg 1 > out_poarta_6 $end
$var reg 1 ? out_poarta_7 $end
$var reg 1 @ out_poarta_8 $end
$var reg 1 A out_poarta_9 $end
$var reg 1 B out_poarta_10 $end
$var reg 1 C out_poarta_11 $end
$var reg 1 D out_poarta_12 $end
$var reg 1 E out_poarta_13 $end
$var reg 1 F out_poarta_14 $end
$scope module d2 $end
$var real 64 G vcc $end
$var reg 1 H a $end
$var reg 1 I b $end
$var reg 1 J c $end
$var reg 1 K d $end
$var reg 1 L o $end
$upscope $end
$scope module bist2 $end
$var real 64 M vcc $end
$var reg 1 N pre $end
$var reg 1 O clr $end
$var reg 1 P clk $end
$var reg 1 Q d $end
$var reg 1 R q $end
$var reg 1 S qbar $end
$var reg 1 T u1out $end
$var reg 1 U u2out $end
$var reg 1 V u3out $end
$var reg 1 W u4out $end
$var reg 1 X u5out $end
$var reg 1 Y u6out $end
$var reg 1 Z u1outd $end
$var reg 1 [ u2outd $end
$var reg 1 \ u3outd $end
$var reg 1 ] u4outd $end
$var reg 1 ^ u5outd $end
$var reg 1 _ u6outd $end
$scope module u1 $end
$var real 64 ` vcc $end
$var reg 1 a a $end
$var reg 1 b b $end
$var reg 1 c c $end
$var reg 1 d o $end
$upscope $end
$scope module u2 $end
$var real 64 e vcc $end
$var reg 1 f a $end
$var reg 1 g b $end
$var reg 1 h c $end
$var reg 1 i o $end
$upscope $end
$scope module u3 $end
$var real 64 j vcc $end
$var reg 1 k a $end
$var reg 1 l b $end
$var reg 1 m c $end
$var reg 1 n o $end
$upscope $end
$scope module u4 $end
$var real 64 o vcc $end
$var reg 1 p a $end
$var reg 1 q b $end
$var reg 1 r c $end
$var reg 1 s o $end
$upscope $end
$scope module u5 $end
$var real 64 t vcc $end
$var reg 1 u a $end
$var reg 1 v b $end
$var reg 1 w c $end
$var reg 1 x o $end
$upscope $end
$scope module u6 $end
$var real 64 y vcc $end
$var reg 1 z a $end
$var reg 1 { b $end
$var reg 1 | c $end
$var reg 1 } o $end
$upscope $end
$upscope $end
$scope module poartab $end
$var real 64 !" vcc $end
$var reg 1 "" a $end
$var reg 1 #" b $end
$var reg 1 $" c $end
$var reg 1 %" o $end
$upscope $end
$scope module poartac $end
$var real 64 &" vcc $end
$var reg 1 '" a $end
$var reg 1 (" b $end
$var reg 1 )" c $end
$var reg 1 *" o $end
$upscope $end
$scope module d1 $end
$var real 64 +" vcc $end
$var reg 1 ," a $end
$var reg 1 -" b $end
$var reg 1 ." o $end
$upscope $end
$scope module bist1 $end
$var real 64 /" vcc $end
$var reg 1 0" pre $end
$var reg 1 1" clr $end
$var reg 1 2" clk $end
$var reg 1 3" d $end
$var reg 1 4" q $end
$var reg 1 5" qbar $end
$var reg 1 6" u1out $end
$var reg 1 7" u2out $end
$var reg 1 8" u3out $end
$var reg 1 9" u4out $end
$var reg 1 :" u5out $end
$var reg 1 ;" u6out $end
$var reg 1 <" u1outd $end
$var reg 1 =" u2outd $end
$var reg 1 >" u3outd $end
$var reg 1 ?" u4outd $end
$var reg 1 @" u5outd $end
$var reg 1 A" u6outd $end
$scope module u1 $end
$var real 64 B" vcc $end
$var reg 1 C" a $end
$var reg 1 D" b $end
$var reg 1 E" c $end
$var reg 1 F" o $end
$upscope $end
$scope module u2 $end
$var real 64 G" vcc $end
$var reg 1 H" a $end
$var reg 1 I" b $end
$var reg 1 J" c $end
$var reg 1 K" o $end
$upscope $end
$scope module u3 $end
$var real 64 L" vcc $end
$var reg 1 M" a $end
$var reg 1 N" b $end
$var reg 1 O" c $end
$var reg 1 P" o $end
$upscope $end
$scope module u4 $end
$var real 64 Q" vcc $end
$var reg 1 R" a $end
$var reg 1 S" b $end
$var reg 1 T" c $end
$var reg 1 U" o $end
$upscope $end
$scope module u5 $end
$var real 64 V" vcc $end
$var reg 1 W" a $end
$var reg 1 X" b $end
$var reg 1 Y" c $end
$var reg 1 Z" o $end
$upscope $end
$scope module u6 $end
$var real 64 [" vcc $end
$var reg 1 \" a $end
$var reg 1 ]" b $end
$var reg 1 ^" c $end
$var reg 1 _" o $end
$upscope $end
$upscope $end
$scope module poarta1 $end
$var real 64 `" vcc $end
$var reg 1 a" a $end
$var reg 1 b" b $end
$var reg 1 c" o $end
$upscope $end
$scope module poarta2 $end
$var real 64 d" vcc $end
$var reg 1 e" a $end
$var reg 1 f" b $end
$var reg 1 g" o $end
$upscope $end
$scope module poarta3 $end
$var real 64 h" vcc $end
$var reg 1 i" a $end
$var reg 1 j" b $end
$var reg 1 k" o $end
$upscope $end
$scope module poarta4 $end
$var real 64 l" vcc $end
$var reg 1 m" a $end
$var reg 1 n" b $end
$var reg 1 o" o $end
$upscope $end
$scope module poarta5 $end
$var real 64 p" vcc $end
$var reg 1 q" a $end
$var reg 1 r" o $end
$upscope $end
$scope module poarta6 $end
$var real 64 s" vcc $end
$var reg 1 t" a $end
$var reg 1 u" b $end
$var reg 1 v" o $end
$upscope $end
$scope module poarta7 $end
$var real 64 w" vcc $end
$var reg 1 x" a $end
$var reg 1 y" b $end
$var reg 1 z" o $end
$upscope $end
$scope module poarta8 $end
$var real 64 {" vcc $end
$var reg 1 |" a $end
$var reg 1 }" b $end
$var reg 1 !# o $end
$upscope $end
$scope module poarta9 $end
$var real 64 "# vcc $end
$var reg 1 ## a $end
$var reg 1 $# b $end
$var reg 1 %# o $end
$upscope $end
$scope module poarta10 $end
$var real 64 &# vcc $end
$var reg 1 '# a $end
$var reg 1 (# b $end
$var reg 1 )# o $end
$upscope $end
$scope module poarta11 $end
$var real 64 *# vcc $end
$var reg 1 +# a $end
$var reg 1 ,# b $end
$var reg 1 -# c $end
$var reg 1 .# o $end
$upscope $end
$scope module poarta12 $end
$var real 64 /# vcc $end
$var reg 1 0# a $end
$var reg 1 1# b $end
$var reg 1 2# o $end
$upscope $end
$scope module poarta13 $end
$var real 64 3# vcc $end
$var reg 1 4# a $end
$var reg 1 5# b $end
$var reg 1 6# o $end
$upscope $end
$scope module d0 $end
$var real 64 7# vcc $end
$var reg 1 8# a $end
$var reg 1 9# b $end
$var reg 1 :# o $end
$upscope $end
$scope module bist0 $end
$var real 64 ;# vcc $end
$var reg 1 <# pre $end
$var reg 1 =# clr $end
$var reg 1 ># clk $end
$var reg 1 ?# d $end
$var reg 1 @# q $end
$var reg 1 A# qbar $end
$var reg 1 B# u1out $end
$var reg 1 C# u2out $end
$var reg 1 D# u3out $end
$var reg 1 E# u4out $end
$var reg 1 F# u5out $end
$var reg 1 G# u6out $end
$var reg 1 H# u1outd $end
$var reg 1 I# u2outd $end
$var reg 1 J# u3outd $end
$var reg 1 K# u4outd $end
$var reg 1 L# u5outd $end
$var reg 1 M# u6outd $end
$scope module u1 $end
$var real 64 N# vcc $end
$var reg 1 O# a $end
$var reg 1 P# b $end
$var reg 1 Q# c $end
$var reg 1 R# o $end
$upscope $end
$scope module u2 $end
$var real 64 S# vcc $end
$var reg 1 T# a $end
$var reg 1 U# b $end
$var reg 1 V# c $end
$var reg 1 W# o $end
$upscope $end
$scope module u3 $end
$var real 64 X# vcc $end
$var reg 1 Y# a $end
$var reg 1 Z# b $end
$var reg 1 [# c $end
$var reg 1 \# o $end
$upscope $end
$scope module u4 $end
$var real 64 ]# vcc $end
$var reg 1 ^# a $end
$var reg 1 _# b $end
$var reg 1 `# c $end
$var reg 1 a# o $end
$upscope $end
$scope module u5 $end
$var real 64 b# vcc $end
$var reg 1 c# a $end
$var reg 1 d# b $end
$var reg 1 e# c $end
$var reg 1 f# o $end
$upscope $end
$scope module u6 $end
$var real 64 g# vcc $end
$var reg 1 h# a $end
$var reg 1 i# b $end
$var reg 1 j# c $end
$var reg 1 k# o $end
$upscope $end
$upscope $end
$upscope $end
$upscope $end
$enddefinitions $end
#0
0!
0"
0#
1$
0%
bUUU &
r3.3 '
0(
0)
0*
1+
0,
U-
U.
U/
U0
U1
U2
13
U4
05
U6
U7
U8
09
U:
U;
U<
U=
U>
U?
0@
UA
UB
UC
UD
UE
UF
r3.3 G
UH
UI
UJ
0K
0L
r3.3 M
1N
0O
0P
0Q
UR
US
UT
1U
1V
1W
UX
1Y
UZ
U[
U\
U]
U^
U_
r3.3 `
1a
Ub
Uc
Ud
r3.3 e
Uf
0g
0h
1i
r3.3 j
Uk
0l
Um
1n
r3.3 o
Up
0q
0r
1s
r3.3 t
1u
Uv
Uw
Ux
r3.3 y
Uz
0{
U|
1}
r3.3 !"
U""
U#"
U$"
U%"
r3.3 &"
U'"
U("
U)"
U*"
r3.3 +"
U,"
U-"
U."
r3.3 /"
10"
01"
02"
U3"
U4"
U5"
U6"
17"
18"
19"
U:"
1;"
U<"
U="
U>"
U?"
U@"
UA"
r3.3 B"
1C"
UD"
UE"
UF"
r3.3 G"
UH"
0I"
0J"
1K"
r3.3 L"
UM"
0N"
UO"
1P"
r3.3 Q"
UR"
0S"
UT"
1U"
r3.3 V"
1W"
UX"
UY"
UZ"
r3.3 ["
U\"
0]"
U^"
1_"
r3.3 `"
0a"
Ub"
0c"
r3.3 d"
Ue"
Uf"
Ug"
r3.3 h"
1i"
Uj"
Uk"
r3.3 l"
Um"
Un"
Uo"
r3.3 p"
0q"
1r"
r3.3 s"
1t"
Uu"
Uv"
r3.3 w"
Ux"
Uy"
Uz"
r3.3 {"
0|"
U}"
0!#
r3.3 "#
U##
U$#
U%#
r3.3 &#
U'#
U(#
U)#
r3.3 *#
U+#
U,#
U-#
U.#
r3.3 /#
00#
U1#
U2#
r3.3 3#
U4#
U5#
U6#
r3.3 7#
U8#
U9#
U:#
r3.3 ;#
1<#
0=#
0>#
U?#
U@#
UA#
UB#
1C#
1D#
1E#
UF#
1G#
UH#
UI#
UJ#
UK#
UL#
UM#
r3.3 N#
1O#
UP#
UQ#
UR#
r3.3 S#
UT#
0U#
0V#
1W#
r3.3 X#
UY#
0Z#
U[#
1\#
r3.3 ]#
U^#
0_#
U`#
1a#
r3.3 b#
1c#
Ud#
Ue#
Uf#
r3.3 g#
Uh#
0i#
Uj#
1k#
#100000
10
11
12
1:
1<
1H
0L
1S
0T
0X
0Z
1[
1]
1_
1b
1c
0d
0f
1k
1m
1v
1w
0x
1""
1#"
U%"
1'"
1)"
U*"
15"
06"
0:"
0<"
1="
1?"
1A"
1D"
1E"
0F"
0H"
1M"
1O"
1X"
1Y"
0Z"
1b"
0c"
1e"
1f"
1g"
1m"
1n"
1o"
1y"
Uz"
1}"
0!#
1$#
U%#
1+#
1-#
U.#
1A#
0B#
0F#
0H#
1I#
1K#
1M#
1P#
1Q#
0R#
0T#
1Y#
1[#
1d#
1e#
0f#
#200000
1\
1p
1|
1>"
1R"
1^"
1J#
1^#
1j#
#300000
b000 &
0-
0.
0/
06
07
08
0;
0>
0?
0A
0B
0C
0D
0E
0F
0I
0J
0L
0R
0^
0z
0$"
0%"
0("
0*"
0,"
0-"
0."
03"
04"
0@"
0T"
0\"
0j"
0k"
0u"
0v"
0x"
0z"
0##
0%#
0'#
0(#
0)#
0,#
0.#
01#
02#
04#
05#
06#
08#
09#
0:#
0?#
0@#
0L#
0`#
0h#
#5000000
1!
1(
1P
0V
1h
1l
0n
12"
08"
1J"
1N"
0P"
1>#
0D#
1V#
1Z#
0\#
#5200000
0\
0p
0|
0>"
0R"
0^"
0J#
0^#
0j#
#10000000
0!
1"
0(
1)
1O
0P
1V
1g
0h
0l
1n
1q
1{
11"
02"
18"
1I"
0J"
0N"
1P"
1S"
1]"
1=#
0>#
1D#
1U#
0V#
0Z#
1\#
1_#
1i#
#10200000
1\
1p
1|
1>"
1R"
1^"
1J#
1^#
1j#
#15000000
1!
1(
1P
0V
1h
1l
0n
12"
08"
1J"
1N"
0P"
1>#
0D#
1V#
1Z#
0\#
#15200000
0\
0p
0|
0>"
0R"
0^"
0J#
0^#
0j#
#20000000
0!
0(
0P
1V
0h
0l
1n
02"
18"
0J"
0N"
1P"
0>#
1D#
0V#
0Z#
1\#
#20200000
1\
1p
1|
1>"
1R"
1^"
1J#
1^#
1j#
#25000000
1!
1(
1P
0V
1h
1l
0n
12"
08"
1J"
1N"
0P"
1>#
0D#
1V#
1Z#
0\#
#25200000
0\
0p
0|
0>"
0R"
0^"
0J#
0^#
0j#
#30000000
0!
0(
0P
1V
0h
0l
1n
02"
18"
0J"
0N"
1P"
0>#
1D#
0V#
0Z#
1\#
#30200000
1\
1p
1|
1>"
1R"
1^"
1J#
1^#
1j#
#35000000
1!
1(
1P
0V
1h
1l
0n
12"
08"
1J"
1N"
0P"
1>#
0D#
1V#
1Z#
0\#
#35200000
0\
0p
0|
0>"
0R"
0^"
0J#
0^#
0j#
#40000000
0!
0(
0P
1V
0h
0l
1n
02"
18"
0J"
0N"
1P"
0>#
1D#
0V#
0Z#
1\#
#40200000
1\
1p
1|
1>"
1R"
1^"
1J#
1^#
1j#
#45000000
1!
1(
1P
0V
1h
1l
0n
12"
08"
1J"
1N"
0P"
1>#
0D#
1V#
1Z#
0\#
#45200000
0\
0p
0|
0>"
0R"
0^"
0J#
0^#
0j#
#50000000
0!
0(
0P
1V
0h
0l
1n
02"
18"
0J"
0N"
1P"
0>#
1D#
0V#
0Z#
1\#
#50200000
1\
1p
1|
1>"
1R"
1^"
1J#
1^#
1j#
#55000000
1!
1(
1P
0V
1h
1l
0n
12"
08"
1J"
1N"
0P"
1>#
0D#
1V#
1Z#
0\#
#55200000
0\
0p
0|
0>"
0R"
0^"
0J#
0^#
0j#
#60000000
0!
0(
0P
1V
0h
0l
1n
02"
18"
0J"
0N"
1P"
0>#
1D#
0V#
0Z#
1\#
#60200000
1\
1p
1|
1>"
1R"
1^"
1J#
1^#
1j#
#65000000
1!
1%
1(
1,
19
1@
1D
1F
1P
0V
1h
1l
0n
12"
08"
1J"
1N"
0P"
1a"
1c"
1|"
1!#
10#
12#
18#
1:#
1>#
1?#
0D#
0E#
1V#
1Z#
0\#
1`#
0a#
#65100000
1B#
0C#
1D#
1H#
0K#
0P#
1R#
1T#
0W#
0[#
1\#
#65200000
0\
0p
0|
0>"
0R"
0^"
1F#
0I#
0Q#
0Y#
0d#
1f#
#65300000
#65400000
b001 &
1/
16
18
1;
1>
1A
1$"
1%"
1,"
1."
13"
1T"
1j"
1k"
1u"
1v"
1##
1%#
1'#
0)#
11#
12#
1@#
0G#
1L#
1h#
0k#
#65500000
02
09
0@
0H
0L
0)"
0*"
0b"
0c"
0|"
0!#
0+#
0.#
00#
12#
0A#
0M#
0e#
#70000000
0!
0(
0P
1V
0h
0l
1n
02"
18"
0J"
0N"
1P"
0>#
1C#
0V#
1W#
0Z#
#70100000
1I#
1Q#
1Y#
1d#
#70200000
1\
1p
1|
09"
1>"
1R"
0U"
1^"
#70300000
16"
1<"
0?"
0D"
1F"
1H"
0O"
#75000000
1!
0%
1(
0,
1P
0V
1h
1l
0n
12"
07"
1J"
0K"
1N"
0a"
0c"
1>#
0C#
1V#
0W#
1Z#
#75100000
1:"
0="
0E"
0M"
0X"
1Z"
0I#
0Q#
0Y#
0d#
#75200000
0\
0p
0|
#75300000
b011 &
1.
1?
1B
1E
1I
0L
1("
0*"
14"
0;"
1@"
1\"
0_"
1x"
1z"
1(#
1)#
1,#
0.#
14#
16#
19#
1:#
#75400000
01
06
08
0:
0<
0A
0D
0#"
0%"
0,"
0."
03"
05"
19"
0A"
0T"
1U"
0Y"
0e"
0g"
0m"
0o"
0}"
0!#
0$#
0%#
01#
02#
08#
1:#
#75500000
1?"
1D"
1O"
#80000000
0!
0(
0P
1V
0h
0l
1n
02"
17"
0J"
1K"
0N"
0>#
1C#
0V#
1W#
0Z#
#80100000
06"
0<"
1="
1E"
0F"
0H"
1M"
1X"
1I#
1Q#
1Y#
1d#
#80200000
1\
1p
1|
#85000000
1!
1(
1P
0V
1h
1l
0n
12"
08"
1J"
1N"
0P"
1>#
0C#
1V#
0W#
1Z#
#85100000
0I#
0Q#
0Y#
0d#
#85200000
0\
0p
0|
1;"
0>"
0R"
0^"
1_"
#85300000
11
16
18
1:
1<
1A
1D
1#"
1%"
1,"
1."
13"
15"
0:"
1A"
1T"
1Y"
0Z"
1e"
1g"
1m"
1o"
1}"
0!#
1$#
1%#
11#
12#
18#
1:#
#85500000
b001 &
0.
0?
0B
0E
0I
0L
0("
0*"
04"
0@"
0\"
0x"
0z"
0(#
0)#
0,#
0.#
04#
06#
09#
1:#
#90000000
0!
0(
0P
1V
0h
0l
1n
02"
18"
0J"
0N"
1P"
0>#
1C#
0V#
1W#
0Z#
#90100000
1I#
1Q#
1Y#
1d#
#90200000
1\
1p
1|
09"
1>"
1R"
0U"
1^"
#90300000
16"
1<"
0?"
0D"
1F"
1H"
0O"
#95000000
1!
1(
1P
0V
1h
1l
0n
12"
07"
1J"
0K"
1N"
1>#
0C#
1V#
0W#
1Z#
#95100000
1:"
0="
0E"
0M"
0X"
1Z"
0I#
0Q#
0Y#
0d#
#95200000
0\
0p
0|
#95300000
b011 &
1.
1?
1B
1E
1I
0L
1("
0*"
14"
0;"
1@"
1\"
0_"
1x"
1z"
1(#
1)#
1,#
0.#
14#
16#
19#
1:#
#95400000
01
06
08
0:
0<
0A
0D
0#"
0%"
0,"
0."
03"
05"
19"
0A"
0T"
1U"
0Y"
0e"
0g"
0m"
0o"
0}"
0!#
0$#
0%#
01#
02#
08#
1:#
#95500000
1?"
1D"
1O"
#100000000
0!
0(
0P
1V
0h
0l
1n
02"
17"
0J"
1K"
0N"
0>#
1C#
0V#
1W#
0Z#
#100100000
06"
0<"
1="
1E"
0F"
0H"
1M"
1X"
1I#
1Q#
1Y#
1d#
#100200000
1\
1p
1|
#105000000
1!
0$
1(
0+
0;
1P
0V
1h
1l
0n
12"
08"
1J"
1N"
0P"
0i"
0k"
0##
0%#
1>#
0C#
1V#
0W#
1Z#
#105100000
0I#
0Q#
0Y#
0d#
#105200000
0\
0p
0|
1;"
0>"
0R"
0^"
1_"
#105300000
11
16
18
1:
1<
1#"
1%"
1,"
1."
13"
15"
0:"
1A"
1T"
1Y"
0Z"
1e"
1g"
1m"
1o"
1}"
0!#
1$#
0%#
#105500000
b001 &
0.
0?
0B
0E
0F
0I
0L
0("
0*"
04"
0@"
0\"
0x"
0z"
0(#
0)#
0,#
0.#
04#
06#
09#
0:#
0?#
1E#
0`#
1a#
#105600000
1K#
1P#
1[#
#110000000
0!
0(
0P
1V
0h
0l
1n
02"
18"
0J"
0N"
1P"
0>#
1C#
0V#
1W#
0Z#
#110100000
0B#
0H#
1I#
1Q#
0R#
0T#
1Y#
1d#
#110200000
1\
1p
1|
09"
1>"
1R"
0U"
1^"
#110300000
16"
1<"
0?"
0D"
1F"
1H"
0O"
#115000000
1!
1(
1P
0V
1h
1l
0n
12"
07"
1J"
0K"
1N"
1>#
0D#
1V#
1Z#
0\#
#115100000
1:"
0="
0E"
0M"
0X"
1Z"
#115200000
0\
0p
0|
1G#
0J#
0^#
0j#
1k#
#115300000
b011 &
1.
12
17
1?
1B
1C
1E
1F
1H
1I
0L
1("
1)"
1*"
1-"
1."
14"
0;"
1@"
1\"
0_"
1b"
0c"
1x"
1z"
1(#
1)#
1+#
1,#
1.#
14#
15#
16#
19#
1:#
1?#
1A#
0F#
1M#
1`#
1e#
0f#
#115400000
01
06
0:
0<
0#"
0%"
0,"
1."
05"
0A"
0Y"
0e"
0g"
0m"
0o"
0}"
0!#
0$#
0%#
#115500000
b010 &
0/
0>
0B
0$"
0%"
0j"
0k"
0u"
0v"
0'#
0)#
04#
16#
0@#
0L#
0h#
#120000000
0!
0(
0P
1V
0h
0l
1n
02"
17"
0J"
1K"
0N"
0>#
1D#
0V#
0Z#
1\#
#120100000
1="
1E"
1M"
1X"
#120200000
1\
1p
1|
0E#
1J#
1^#
0a#
1j#
#120300000
1B#
1H#
0K#
0P#
1R#
1T#
0[#
#125000000
1!
1(
1P
0V
1h
1l
0n
12"
07"
1J"
0K"
1N"
1>#
0C#
1V#
0W#
1Z#
#125100000
0="
0E"
0M"
0X"
1F#
0I#
0Q#
0Y#
0d#
1f#
#125200000
0\
0p
0|
#125300000
b011 &
1/
1>
1B
1$"
0%"
1j"
0k"
1u"
1v"
1'#
1)#
14#
16#
1@#
0G#
1L#
1h#
0k#
#125400000
02
07
08
0C
0H
0L
0)"
0*"
0-"
0."
03"
19"
0T"
1U"
0b"
0c"
0+#
0.#
05#
16#
0A#
0M#
0e#
#125500000
1?"
1D"
1O"
#130000000
0!
0(
0P
1V
0h
0l
1n
02"
17"
0J"
1K"
0N"
0>#
1C#
0V#
1W#
0Z#
#130100000
06"
0<"
1="
1E"
0F"
0H"
1M"
1X"
1I#
1Q#
1Y#
1d#
#130200000
1\
1p
1|
#135000000
1!
1$
1(
1+
1;
1P
0V
1h
1l
0n
12"
08"
1J"
1N"
0P"
1i"
1k"
1##
0%#
1>#
0C#
1V#
0W#
1Z#
#135100000
0I#
0Q#
0Y#
0d#
#135200000
0\
0p
0|
1;"
0>"
0R"
0^"
1_"
#135300000
11
16
18
1:
1<
1A
1D
1#"
1%"
1,"
1."
13"
15"
0:"
1A"
1T"
1Y"
0Z"
1e"
1g"
1m"
1o"
1}"
0!#
1$#
1%#
11#
12#
18#
1:#
#135500000
b001 &
0.
0?
0B
0E
0I
0L
0("
0*"
04"
0@"
0\"
0x"
0z"
0(#
0)#
0,#
0.#
04#
06#
09#
1:#
#140000000
0!
0(
0P
1V
0h
0l
1n
02"
18"
0J"
0N"
1P"
0>#
1C#
0V#
1W#
0Z#
#140100000
1I#
1Q#
1Y#
1d#
#140200000
1\
1p
1|
09"
1>"
1R"
0U"
1^"
#140300000
16"
1<"
0?"
0D"
1F"
1H"
0O"
#145000000
1!
1(
1P
0V
1h
1l
0n
12"
07"
1J"
0K"
1N"
1>#
0C#
1V#
0W#
1Z#
#145100000
1:"
0="
0E"
0M"
0X"
1Z"
0I#
0Q#
0Y#
0d#
#145200000
0\
0p
0|
#145300000
b011 &
1.
1?
1B
1E
1I
0L
1("
0*"
14"
0;"
1@"
1\"
0_"
1x"
1z"
1(#
1)#
1,#
0.#
14#
16#
19#
1:#
#145400000
01
06
08
0:
0<
0A
0D
0#"
0%"
0,"
0."
03"
05"
19"
0A"
0T"
1U"
0Y"
0e"
0g"
0m"
0o"
0}"
0!#
0$#
0%#
01#
02#
08#
1:#
#145500000
1?"
1D"
1O"
#150000000
0!
0(
0P
1V
0h
0l
1n
02"
17"
0J"
1K"
0N"
0>#
1C#
0V#
1W#
0Z#
#150100000
06"
0<"
1="
1E"
0F"
0H"
1M"
1X"
1I#
1Q#
1Y#
1d#
#150200000
1\
1p
1|
#155000000
1!
1(
1P
0V
1h
1l
0n
12"
08"
1J"
1N"
0P"
1>#
0C#
1V#
0W#
1Z#
#155100000
0I#
0Q#
0Y#
0d#
#155200000
0\
0p
0|
1;"
0>"
0R"
0^"
1_"
#155300000
11
16
18
1:
1<
1A
1D
1#"
1%"
1,"
1."
13"
15"
0:"
1A"
1T"
1Y"
0Z"
1e"
1g"
1m"
1o"
1}"
0!#
1$#
1%#
11#
12#
18#
1:#
#155500000
b001 &
0.
0?
0B
0E
0I
0L
0("
0*"
04"
0@"
0\"
0x"
0z"
0(#
0)#
0,#
0.#
04#
06#
09#
1:#
#160000000
0!
0(
0P
1V
0h
0l
1n
02"
18"
0J"
0N"
1P"
0>#
1C#
0V#
1W#
0Z#
#160100000
1I#
1Q#
1Y#
1d#
#160200000
1\
1p
1|
09"
1>"
1R"
0U"
1^"
#160300000
16"
1<"
0?"
0D"
1F"
1H"
0O"
#165000000
1!
1(
1P
0V
1h
1l
0n
12"
07"
1J"
0K"
1N"
1>#
0C#
1V#
0W#
1Z#
#165100000
1:"
0="
0E"
0M"
0X"
1Z"
0I#
0Q#
0Y#
0d#
#165200000
0\
0p
0|
#165300000
b011 &
1.
1?
1B
1E
1I
0L
1("
0*"
14"
0;"
1@"
1\"
0_"
1x"
1z"
1(#
1)#
1,#
0.#
14#
16#
19#
1:#
#165400000
01
06
08
0:
0<
0A
0D
0#"
0%"
0,"
0."
03"
05"
19"
0A"
0T"
1U"
0Y"
0e"
0g"
0m"
0o"
0}"
0!#
0$#
0%#
01#
02#
08#
1:#
#165500000
1?"
1D"
1O"
#170000000
0!
0(
0P
1V
0h
0l
1n
02"
17"
0J"
1K"
0N"
0>#
1C#
0V#
1W#
0Z#
#170100000
06"
0<"
1="
1E"
0F"
0H"
1M"
1X"
1I#
1Q#
1Y#
1d#
#170200000
1\
1p
1|
#175000000
1!
1#
1(
1*
03
0>
0B
0E
0F
1K
0L
1P
0V
1h
1l
0n
12"
08"
1J"
1N"
0P"
1q"
0r"
0t"
0v"
0'#
0)#
04#
06#
09#
0:#
1>#
0?#
0C#
1E#
1V#
0W#
1Z#
0`#
1a#
#175100000
0I#
1K#
1P#
0Q#
0Y#
1[#
0d#
#175200000
0\
0p
0|
1;"
0>"
0R"
0^"
1_"
#175300000
11
16
18
1:
1<
1A
1D
1F
1#"
1%"
1,"
1."
13"
15"
0:"
1A"
1T"
1Y"
0Z"
1e"
1g"
1m"
1o"
1}"
0!#
1$#
1%#
11#
12#
18#
1:#
1?#
0E#
1`#
0a#
#175400000
0K#
0P#
0[#
#175500000
b001 &
0.
0?
0I
0L
0("
0*"
04"
0@"
0\"
0x"
0z"
0(#
0)#
0,#
0.#
#180000000
0!
0(
0P
1V
0h
0l
1n
02"
18"
0J"
0N"
1P"
0>#
1C#
0V#
1W#
0Z#
#180100000
1I#
1Q#
1Y#
1d#
#180200000
1\
1p
1|
09"
1>"
1R"
0U"
1^"
#180300000
16"
1<"
0?"
0D"
1F"
1H"
0O"
#185000000
1!
1(
1P
0V
1h
1l
0n
12"
07"
1J"
0K"
1N"
1>#
0C#
1V#
0W#
1Z#
#185100000
1:"
0="
0E"
0M"
0X"
1Z"
0I#
0Q#
0Y#
0d#
#185200000
0\
0p
0|
#185300000
b011 &
1.
1?
1I
0L
1("
0*"
14"
0;"
1@"
1\"
0_"
1x"
1z"
1(#
0)#
1,#
0.#
#185400000
01
06
08
0:
0<
0A
0D
0F
0#"
0%"
0,"
0."
03"
05"
19"
0A"
0T"
1U"
0Y"
0e"
0g"
0m"
0o"
0}"
0!#
0$#
0%#
01#
02#
08#
0:#
0?#
1E#
0`#
1a#
#185500000
1?"
1D"
1O"
1K#
1P#
1[#
#190000000
0!
0(
0P
1V
0h
0l
1n
02"
17"
0J"
1K"
0N"
0>#
1C#
0V#
1W#
0Z#
#190100000
06"
0<"
1="
1E"
0F"
0H"
1M"
1X"
0B#
0H#
1I#
1Q#
0R#
0T#
1Y#
1d#
#190200000
1\
1p
1|
#195000000
1!
1(
1P
0V
1h
1l
0n
12"
08"
1J"
1N"
0P"
1>#
0D#
1V#
1Z#
0\#
#195200000
0\
0p
0|
1;"
0>"
0R"
0^"
1_"
1G#
0J#
0^#
0j#
1k#
#195300000
11
12
16
17
18
1:
1<
1A
1C
1D
1E
1F
1H
0L
1#"
1%"
1)"
1*"
1,"
1-"
1."
13"
15"
0:"
1A"
1T"
1Y"
0Z"
1b"
0c"
1e"
1g"
1m"
1o"
1}"
0!#
1$#
1%#
1+#
1.#
11#
12#
15#
16#
18#
19#
1:#
1?#
1A#
0F#
1M#
1`#
1e#
0f#
#195500000
b000 &
0.
0/
06
07
08
0;
0?
0A
0C
0D
0E
0F
0I
0L
0$"
0%"
0("
0*"
0,"
0-"
0."
03"
04"
0@"
0T"
0\"
0j"
0k"
0u"
0v"
0x"
0z"
0##
0%#
0(#
0)#
0,#
0.#
01#
02#
05#
06#
08#
09#
0:#
0?#
0@#
0L#
0`#
0h#
#200000000
0!
0(
0P
1V
0h
0l
1n
02"
18"
0J"
0N"
1P"
0>#
1D#
0V#
0Z#
1\#
#200200000
1\
1p
1|
1>"
1R"
1^"
1J#
1^#
1j#
#205000000
1!
1(
1P
0V
1h
1l
0n
12"
08"
1J"
1N"
0P"
1>#
0D#
1V#
1Z#
0\#
#205200000
0\
0p
0|
0>"
0R"
0^"
0J#
0^#
0j#
#210000000
0!
0(
0P
1V
0h
0l
1n
02"
18"
0J"
0N"
1P"
0>#
1D#
0V#
0Z#
1\#
#210200000
1\
1p
1|
1>"
1R"
1^"
1J#
1^#
1j#
#215000000
1!
1(
1P
0V
1h
1l
0n
12"
08"
1J"
1N"
0P"
1>#
0D#
1V#
1Z#
0\#
#215200000
0\
0p
0|
0>"
0R"
0^"
0J#
0^#
0j#
