workspace/Abel/multip/sim.vcd
$date
  Fri Jun 05 21:59:21 2020
$end
$version
  GHDL v0
$end
$timescale
  1 fs
$end
$scope module standard $end
$upscope $end
$scope module textio $end
$upscope $end
$scope module std_logic_1164 $end
$upscope $end
$scope module pmonitor $end
$upscope $end
$scope module test_counter $end
$var reg 1 ! clk $end
$var reg 1 " init $end
$var reg 1 # check $end
$var reg 3 $ count[2:0] $end
$scope module instanta_counter $end
$var real 64 % vcc $end
$var reg 1 & clk $end
$var reg 1 ' init $end
$var reg 1 ( check $end
$var reg 3 ) q[2:0] $end
$var reg 3 * c[2:0] $end
$var reg 1 + initn $end
$var reg 1 , checkn $end
$var reg 1 - c0n $end
$var reg 1 . net1 $end
$var reg 1 / net2 $end
$scope module bist0 $end
$var real 64 0 vcc $end
$var reg 1 1 pre $end
$var reg 1 2 clr $end
$var reg 1 3 clk $end
$var reg 1 4 d $end
$var reg 1 5 q $end
$var reg 1 6 qbar $end
$var reg 1 7 u1out $end
$var reg 1 8 u2out $end
$var reg 1 9 u3out $end
$var reg 1 : u4out $end
$var reg 1 ; u5out $end
$var reg 1 < u6out $end
$scope module u1 $end
$var real 64 = vcc $end
$var reg 1 > a $end
$var reg 1 ? b $end
$var reg 1 @ c $end
$var reg 1 A o $end
$upscope $end
$scope module u2 $end
$var real 64 B vcc $end
$var reg 1 C a $end
$var reg 1 D b $end
$var reg 1 E c $end
$var reg 1 F o $end
$upscope $end
$scope module u3 $end
$var real 64 G vcc $end
$var reg 1 H a $end
$var reg 1 I b $end
$var reg 1 J c $end
$var reg 1 K o $end
$upscope $end
$scope module u4 $end
$var real 64 L vcc $end
$var reg 1 M a $end
$var reg 1 N b $end
$var reg 1 O c $end
$var reg 1 P o $end
$upscope $end
$scope module u5 $end
$var real 64 Q vcc $end
$var reg 1 R a $end
$var reg 1 S b $end
$var reg 1 T c $end
$var reg 1 U o $end
$upscope $end
$scope module u6 $end
$var real 64 V vcc $end
$var reg 1 W a $end
$var reg 1 X b $end
$var reg 1 Y c $end
$var reg 1 Z o $end
$upscope $end
$upscope $end
$scope module bist1 $end
$var real 64 [ vcc $end
$var reg 1 \ pre $end
$var reg 1 ] clr $end
$var reg 1 ^ clk $end
$var reg 1 _ d $end
$var reg 1 ` q $end
$var reg 1 a qbar $end
$var reg 1 b u1out $end
$var reg 1 c u2out $end
$var reg 1 d u3out $end
$var reg 1 e u4out $end
$var reg 1 f u5out $end
$var reg 1 g u6out $end
$scope module u1 $end
$var real 64 h vcc $end
$var reg 1 i a $end
$var reg 1 j b $end
$var reg 1 k c $end
$var reg 1 l o $end
$upscope $end
$scope module u2 $end
$var real 64 m vcc $end
$var reg 1 n a $end
$var reg 1 o b $end
$var reg 1 p c $end
$var reg 1 q o $end
$upscope $end
$scope module u3 $end
$var real 64 r vcc $end
$var reg 1 s a $end
$var reg 1 t b $end
$var reg 1 u c $end
$var reg 1 v o $end
$upscope $end
$scope module u4 $end
$var real 64 w vcc $end
$var reg 1 x a $end
$var reg 1 y b $end
$var reg 1 z c $end
$var reg 1 { o $end
$upscope $end
$scope module u5 $end
$var real 64 | vcc $end
$var reg 1 } a $end
$var reg 1 !" b $end
$var reg 1 "" c $end
$var reg 1 #" o $end
$upscope $end
$scope module u6 $end
$var real 64 $" vcc $end
$var reg 1 %" a $end
$var reg 1 &" b $end
$var reg 1 '" c $end
$var reg 1 (" o $end
$upscope $end
$upscope $end
$scope module bist2 $end
$var real 64 )" vcc $end
$var reg 1 *" pre $end
$var reg 1 +" clr $end
$var reg 1 ," clk $end
$var reg 1 -" d $end
$var reg 1 ." q $end
$var reg 1 /" qbar $end
$var reg 1 0" u1out $end
$var reg 1 1" u2out $end
$var reg 1 2" u3out $end
$var reg 1 3" u4out $end
$var reg 1 4" u5out $end
$var reg 1 5" u6out $end
$scope module u1 $end
$var real 64 6" vcc $end
$var reg 1 7" a $end
$var reg 1 8" b $end
$var reg 1 9" c $end
$var reg 1 :" o $end
$upscope $end
$scope module u2 $end
$var real 64 ;" vcc $end
$var reg 1 <" a $end
$var reg 1 =" b $end
$var reg 1 >" c $end
$var reg 1 ?" o $end
$upscope $end
$scope module u3 $end
$var real 64 @" vcc $end
$var reg 1 A" a $end
$var reg 1 B" b $end
$var reg 1 C" c $end
$var reg 1 D" o $end
$upscope $end
$scope module u4 $end
$var real 64 E" vcc $end
$var reg 1 F" a $end
$var reg 1 G" b $end
$var reg 1 H" c $end
$var reg 1 I" o $end
$upscope $end
$scope module u5 $end
$var real 64 J" vcc $end
$var reg 1 K" a $end
$var reg 1 L" b $end
$var reg 1 M" c $end
$var reg 1 N" o $end
$upscope $end
$scope module u6 $end
$var real 64 O" vcc $end
$var reg 1 P" a $end
$var reg 1 Q" b $end
$var reg 1 R" c $end
$var reg 1 S" o $end
$upscope $end
$upscope $end
$scope module poarta1 $end
$var real 64 T" vcc $end
$var reg 1 U" a $end
$var reg 1 V" b $end
$var reg 1 W" o $end
$upscope $end
$scope module poarta2 $end
$var real 64 X" vcc $end
$var reg 1 Y" a $end
$var reg 1 Z" b $end
$var reg 1 [" c $end
$var reg 1 \" o $end
$upscope $end
$scope module poarta3 $end
$var real 64 ]" vcc $end
$var reg 1 ^" a $end
$var reg 1 _" b $end
$var reg 1 `" c $end
$var reg 1 a" o $end
$upscope $end
$scope module inversor1 $end
$var real 64 b" vcc $end
$var reg 1 c" a $end
$var reg 1 d" o $end
$upscope $end
$scope module inversor2 $end
$var real 64 e" vcc $end
$var reg 1 f" a $end
$var reg 1 g" o $end
$upscope $end
$scope module inversor3 $end
$var real 64 h" vcc $end
$var reg 1 i" a $end
$var reg 1 j" o $end
$upscope $end
$upscope $end
$upscope $end
$enddefinitions $end
#0
0!
0"
1#
bUUU $
r3.3 %
0&
0'
1(
bUUU )
b00U *
1+
0,
U-
0.
U/
r3.3 0
11
02
03
U4
05
16
07
18
19
1:
0;
1<
r3.3 =
1>
1?
1@
0A
r3.3 B
0C
0D
0E
1F
r3.3 G
1H
0I
1J
1K
r3.3 L
1M
0N
UO
1P
r3.3 Q
1R
1S
1T
0U
r3.3 V
0W
0X
1Y
1Z
r3.3 [
1\
0]
U^
0_
0`
1a
0b
1c
Ud
1e
0f
1g
r3.3 h
1i
1j
1k
0l
r3.3 m
0n
0o
Up
1q
r3.3 r
1s
Ut
1u
Uv
r3.3 w
Ux
0y
0z
1{
r3.3 |
1}
1!"
1""
0#"
r3.3 $"
0%"
0&"
U'"
1("
r3.3 )"
1*"
0+"
0,"
0-"
0."
1/"
00"
11"
12"
13"
04"
15"
r3.3 6"
17"
18"
19"
0:"
r3.3 ;"
0<"
0="
0>"
1?"
r3.3 @"
1A"
0B"
1C"
1D"
r3.3 E"
1F"
0G"
0H"
1I"
r3.3 J"
1K"
1L"
1M"
0N"
r3.3 O"
0P"
0Q"
1R"
1S"
r3.3 T"
0U"
UV"
UW"
r3.3 X"
UY"
1Z"
0["
0\"
r3.3 ]"
U^"
1_"
1`"
Ua"
r3.3 b"
0c"
1d"
r3.3 e"
1f"
0g"
r3.3 h"
Ui"
Uj"
#5000000
1!
1&
13
09
1E
1F
1I
0K
0M
1P
0Y
1Z
#10000000
0!
0&
03
19
0E
1F
0I
1K
1M
1P
1Y
1Z
#15000000
1!
1&
13
09
1E
1F
1I
0K
0M
1P
0Y
1Z
#20000000
0!
0&
03
19
0E
1F
0I
1K
1M
1P
1Y
1Z
#25000000
1!
1&
13
09
1E
1F
1I
0K
0M
1P
0Y
1Z
#30000000
0!
0&
03
19
0E
1F
0I
1K
1M
1P
1Y
1Z
#35000000
1!
1&
13
09
1E
1F
1I
0K
0M
1P
0Y
1Z
#40000000
0!
0&
03
19
0E
1F
0I
1K
1M
1P
1Y
1Z
#45000000
1!
1&
13
09
1E
1F
1I
0K
0M
1P
0Y
1Z
#50000000
0!
1"
0&
1'
b000 *
0+
1-
0/
12
03
04
05
07
19
1:
1?
0A
0C
1D
0E
1F
0I
1J
1K
1M
1N
0O
1P
1X
1Y
1Z
1]
0^
1d
1o
0p
1q
0t
1v
1x
1y
1{
1&"
1'"
1("
1+"
1="
1?"
1G"
1I"
1Q"
1S"
0V"
0W"
0Y"
0Z"
0\"
1^"
0_"
0a"
1c"
0d"
0i"
1j"
#55000000
1!
1&
13
09
1E
1F
1I
0K
0M
1P
0Y
1Z
#60000000
0!
0#
0&
0(
1,
03
19
0E
1F
0I
1K
1M
1P
1Y
1Z
1["
0\"
0`"
0a"
0f"
1g"
#65000000
1!
1&
13
09
1E
1F
1I
0K
0M
1P
0Y
1Z
#70000000
0!
1#
0&
1(
0,
03
19
0E
1F
0I
1K
1M
1P
1Y
1Z
0["
0\"
1`"
0a"
1f"
0g"
#75000000
1!
1&
13
09
1E
1F
1I
0K
0M
1P
0Y
1Z
#80000000
0!
0&
03
19
0E
1F
0I
1K
1M
1P
1Y
1Z
#85000000
1!
1&
13
09
1E
1F
1I
0K
0M
1P
0Y
1Z
#90000000
0!
0&
03
19
0E
1F
0I
1K
1M
1P
1Y
1Z
#95000000
1!
1&
13
09
1E
1F
1I
0K
0M
1P
0Y
1Z
#100000000
0!
0&
03
19
0E
1F
0I
1K
1M
1P
1Y
1Z
#105000000
1!
1&
13
09
1E
1F
1I
0K
0M
1P
0Y
1Z
#110000000
0!
0&
03
19
0E
1F
0I
1K
1M
1P
1Y
1Z
#115000000
1!
1&
13
09
1E
1F
1I
0K
0M
1P
0Y
1Z
#120000000
0!
0&
03
19
0E
1F
0I
1K
1M
1P
1Y
1Z
#125000000
1!
1&
13
09
1E
1F
1I
0K
0M
1P
0Y
1Z
#130000000
0!
0&
03
19
0E
1F
0I
1K
1M
1P
1Y
1Z
#135000000
1!
1&
13
09
1E
1F
1I
0K
0M
1P
0Y
1Z
#140000000
0!
0&
03
19
0E
1F
0I
1K
1M
1P
1Y
1Z
#145000000
1!
1&
13
09
1E
1F
1I
0K
0M
1P
0Y
1Z
#150000000
0!
0&
03
19
0E
1F
0I
1K
1M
1P
1Y
1Z
#155000000
1!
1&
13
09
1E
1F
1I
0K
0M
1P
0Y
1Z
#160000000
0!
0&
03
19
0E
1F
0I
1K
1M
1P
1Y
1Z
#165000000
1!
1&
13
09
1E
1F
1I
0K
0M
1P
0Y
1Z
#170000000
0!
0&
03
19
0E
1F
0I
1K
1M
1P
1Y
1Z
#175000000
1!
1&
13
09
1E
1F
1I
0K
0M
1P
0Y
1Z
#180000000
0!
0&
03
19
0E
1F
0I
1K
1M
1P
1Y
1Z
#185000000
1!
1&
13
09
1E
1F
1I
0K
0M
1P
0Y
1Z
#190000000
0!
0&
03
19
0E
1F
0I
1K
1M
1P
1Y
1Z
#195000000
1!
1&
13
09
1E
1F
1I
0K
0M
1P
0Y
1Z
#200000000
0!
0&
03
19
0E
1F
0I
1K
1M
1P
1Y
1Z
#205000000
1!
1&
13
09
1E
1F
1I
0K
0M
1P
0Y
1Z
#210000000
0!
0&
03
19
0E
1F
0I
1K
1M
1P
1Y
1Z
#215000000
1!
1&
13
09
1E
1F
1I
0K
0M
1P
0Y
1Z
#220000000
0!
0&
03
19
0E
1F
0I
1K
1M
1P
1Y
1Z
#225000000
1!
1&
13
09
1E
1F
1I
0K
0M
1P
0Y
1Z
#230000000
0!
0&
03
19
0E
1F
0I
1K
1M
1P
1Y
1Z
#235000000
1!
1&
13
09
1E
1F
1I
0K
0M
1P
0Y
1Z
#240000000
0!
0&
03
19
0E
1F
0I
1K
1M
1P
1Y
1Z
#245000000
1!
1&
13
09
1E
1F
1I
0K
0M
1P
0Y
1Z
#250000000
0!
0&
03
19
0E
1F
0I
1K
1M
1P
1Y
1Z
#255000000
1!
1&
13
09
1E
1F
1I
0K
0M
1P
0Y
1Z
#260000000
0!
0&
03
19
0E
1F
0I
1K
1M
1P
1Y
1Z
#265000000
1!
1&
13
09
1E
1F
1I
0K
0M
1P
0Y
1Z
#270000000
0!
0&
03
19
0E
1F
0I
1K
1M
1P
1Y
1Z
#275000000
1!
1&
13
09
1E
1F
1I
0K
0M
1P
0Y
1Z
#280000000
0!
0&
03
19
0E
1F
0I
1K
1M
1P
1Y
1Z
#285000000
1!
1&
13
09
1E
1F
1I
0K
0M
1P
0Y
1Z
#290000000
0!
0&
03
19
0E
1F
0I
1K
1M
1P
1Y
1Z
#295000000
1!
1&
13
09
1E
1F
1I
0K
0M
1P
0Y
1Z
#300000000
0!
0&
03
19
0E
1F
0I
1K
1M
1P
1Y
1Z
#305000000
1!
1&
13
09
1E
1F
1I
0K
0M
1P
0Y
1Z
#310000000
0!
0&
03
19
0E
1F
0I
1K
1M
1P
1Y
1Z
#315000000
1!
1&
13
09
1E
1F
1I
0K
0M
1P
0Y
1Z
#320000000
0!
0&
03
19
0E
1F
0I
1K
1M
1P
1Y
1Z
#325000000
1!
1&
13
09
1E
1F
1I
0K
0M
1P
0Y
1Z
#330000000
0!
0&
03
19
0E
1F
0I
1K
1M
1P
1Y
1Z
#335000000
1!
1&
13
09
1E
1F
1I
0K
0M
1P
0Y
1Z
#340000000
0!
0&
03
19
0E
1F
0I
1K
1M
1P
1Y
1Z
#345000000
1!
1&
13
09
1E
1F
1I
0K
0M
1P
0Y
1Z
#350000000
0!
0&
03
19
0E
1F
0I
1K
1M
1P
1Y
1Z
#355000000
1!
1&
13
09
1E
1F
1I
0K
0M
1P
0Y
1Z
#360000000
0!
0&
03
19
0E
1F
0I
1K
1M
1P
1Y
1Z
#365000000
1!
1&
13
09
1E
1F
1I
0K
0M
1P
0Y
1Z
#370000000
0!
0&
03
19
0E
1F
0I
1K
1M
1P
1Y
1Z
#375000000
1!
1&
13
09
1E
1F
1I
0K
0M
1P
0Y
1Z
#380000000
0!
0&
03
19
0E
1F
0I
1K
1M
1P
1Y
1Z
#385000000
1!
1&
13
09
1E
1F
1I
0K
0M
1P
0Y
1Z
#390000000
0!
0&
03
19
0E
1F
0I
1K
1M
1P
1Y
1Z
#395000000
1!
1&
13
09
1E
1F
1I
0K
0M
1P
0Y
1Z
#400000000
0!
0&
03
19
0E
1F
0I
1K
1M
1P
1Y
1Z
#405000000
1!
1&
13
09
1E
1F
1I
0K
0M
1P
0Y
1Z
#410000000
0!
0&
03
19
0E
1F
0I
1K
1M
1P
1Y
1Z
#415000000
1!
1&
13
09
1E
1F
1I
0K
0M
1P
0Y
1Z
#420000000
0!
0&
03
19
0E
1F
0I
1K
1M
1P
1Y
1Z
#425000000
1!
1&
13
09
1E
1F
1I
0K
0M
1P
0Y
1Z
#430000000
0!
0&
03
19
0E
1F
0I
1K
1M
1P
1Y
1Z
#435000000
1!
1&
13
09
1E
1F
1I
0K
0M
1P
0Y
1Z
#440000000
0!
0&
03
19
0E
1F
0I
1K
1M
1P
1Y
1Z
#445000000
1!
1&
13
09
1E
1F
1I
0K
0M
1P
0Y
1Z
#450000000
0!
0&
03
19
0E
1F
0I
1K
1M
1P
1Y
1Z
#455000000
1!
1&
13
09
1E
1F
1I
0K
0M
1P
0Y
1Z
#460000000
0!
0&
03
19
0E
1F
0I
1K
1M
1P
1Y
1Z
#465000000
1!
1&
13
09
1E
1F
1I
0K
0M
1P
0Y
1Z
#470000000
0!
0&
03
19
0E
1F
0I
1K
1M
1P
1Y
1Z
#475000000
1!
1&
13
09
1E
1F
1I
0K
0M
1P
0Y
1Z
#480000000
0!
0&
03
19
0E
1F
0I
1K
1M
1P
1Y
1Z
#485000000
1!
1&
13
09
1E
1F
1I
0K
0M
1P
0Y
1Z
#490000000
0!
0&
03
19
0E
1F
0I
1K
1M
1P
1Y
1Z
#495000000
1!
1&
13
09
1E
1F
1I
0K
0M
1P
0Y
1Z
#500000000
0!
0&
03
19
0E
1F
0I
1K
1M
1P
1Y
1Z
#505000000
1!
1&
13
09
1E
1F
1I
0K
0M
1P
0Y
1Z
#510000000
0!
0&
03
19
0E
1F
0I
1K
1M
1P
1Y
1Z
#515000000
1!
1&
13
09
1E
1F
1I
0K
0M
1P
0Y
1Z
#520000000
0!
0&
03
19
0E
1F
0I
1K
1M
1P
1Y
1Z
#525000000
1!
1&
13
09
1E
1F
1I
0K
0M
1P
0Y
1Z
#530000000
0!
0&
03
19
0E
1F
0I
1K
1M
1P
1Y
1Z
#535000000
1!
1&
13
09
1E
1F
1I
0K
0M
1P
0Y
1Z
#540000000
0!
0&
03
19
0E
1F
0I
1K
1M
1P
1Y
1Z
#545000000
1!
1&
13
09
1E
1F
1I
0K
0M
1P
0Y
1Z
#550000000
0!
0&
03
19
0E
1F
0I
1K
1M
1P
1Y
1Z
#555000000
1!
1&
13
09
1E
1F
1I
0K
0M
1P
0Y
1Z
#560000000
0!
0&
03
19
0E
1F
0I
1K
1M
1P
1Y
1Z
#565000000
1!
1&
13
09
1E
1F
1I
0K
0M
1P
0Y
1Z
#570000000
0!
0&
03
19
0E
1F
0I
1K
1M
1P
1Y
1Z
#575000000
1!
1&
13
09
1E
1F
1I
0K
0M
1P
0Y
1Z
#580000000
0!
0&
03
19
0E
1F
0I
1K
1M
1P
1Y
1Z
#585000000
1!
1&
13
09
1E
1F
1I
0K
0M
1P
0Y
1Z
#590000000
0!
0&
03
19
0E
1F
0I
1K
1M
1P
1Y
1Z
#595000000
1!
1&
13
09
1E
1F
1I
0K
0M
1P
0Y
1Z
#600000000
0!
0&
03
19
0E
1F
0I
1K
1M
1P
1Y
1Z
#605000000
1!
1&
13
09
1E
1F
1I
0K
0M
1P
0Y
1Z
#610000000
0!
0&
03
19
0E
1F
0I
1K
1M
1P
1Y
1Z
#615000000
1!
1&
13
09
1E
1F
1I
0K
0M
1P
0Y
1Z
#620000000
0!
0&
03
19
0E
1F
0I
1K
1M
1P
1Y
1Z
#625000000
1!
1&
13
09
1E
1F
1I
0K
0M
1P
0Y
1Z
#630000000
0!
0&
03
19
0E
1F
0I
1K
1M
1P
1Y
1Z
#635000000
1!
1&
13
09
1E
1F
1I
0K
0M
1P
0Y
1Z
#640000000
0!
0&
03
19
0E
1F
0I
1K
1M
1P
1Y
1Z
#645000000
1!
1&
13
09
1E
1F
1I
0K
0M
1P
0Y
1Z
#650000000
0!
0&
03
19
0E
1F
0I
1K
1M
1P
1Y
1Z
#655000000
1!
1&
13
09
1E
1F
1I
0K
0M
1P
0Y
1Z
#660000000
0!
0&
03
19
0E
1F
0I
1K
1M
1P
1Y
1Z
#665000000
1!
1&
13
09
1E
1F
1I
0K
0M
1P
0Y
1Z
#670000000
0!
0&
03
19
0E
1F
0I
1K
1M
1P
1Y
1Z
#675000000
1!
1&
13
09
1E
1F
1I
0K
0M
1P
0Y
1Z
#680000000
0!
0&
03
19
0E
1F
0I
1K
1M
1P
1Y
1Z
#685000000
1!
1&
13
09
1E
1F
1I
0K
0M
1P
0Y
1Z
#690000000
0!
0&
03
19
0E
1F
0I
1K
1M
1P
1Y
1Z
#695000000
1!
1&
13
09
1E
1F
1I
0K
0M
1P
0Y
1Z
#700000000
0!
0&
03
19
0E
1F
0I
1K
1M
1P
1Y
1Z
#705000000
1!
1&
13
09
1E
1F
1I
0K
0M
1P
0Y
1Z
#710000000
0!
0&
03
19
0E
1F
0I
1K
1M
1P
1Y
1Z
#715000000
1!
1&
13
09
1E
1F
1I
0K
0M
1P
0Y
1Z
#720000000
0!
0&
03
19
0E
1F
0I
1K
1M
1P
1Y
1Z
#725000000
1!
1&
13
09
1E
1F
1I
0K
0M
1P
0Y
1Z
#730000000
0!
0&
03
19
0E
1F
0I
1K
1M
1P
1Y
1Z
#735000000
1!
1&
13
09
1E
1F
1I
0K
0M
1P
0Y
1Z
#740000000
0!
0&
03
19
0E
1F
0I
1K
1M
1P
1Y
1Z
#745000000
1!
1&
13
09
1E
1F
1I
0K
0M
1P
0Y
1Z
#750000000
0!
0&
03
19
0E
1F
0I
1K
1M
1P
1Y
1Z
#755000000
1!
1&
13
09
1E
1F
1I
0K
0M
1P
0Y
1Z
#760000000
0!
0&
03
19
0E
1F
0I
1K
1M
1P
1Y
1Z
#765000000
1!
1&
13
09
1E
1F
1I
0K
0M
1P
0Y
1Z
#770000000
0!
0&
03
19
0E
1F
0I
1K
1M
1P
1Y
1Z
#775000000
1!
1&
13
09
1E
1F
1I
0K
0M
1P
0Y
1Z
#780000000
0!
0&
03
19
0E
1F
0I
1K
1M
1P
1Y
1Z
#785000000
1!
1&
13
09
1E
1F
1I
0K
0M
1P
0Y
1Z
#790000000
0!
0&
03
19
0E
1F
0I
1K
1M
1P
1Y
1Z
#795000000
1!
1&
13
09
1E
1F
1I
0K
0M
1P
0Y
1Z
#800000000
0!
0&
03
19
0E
1F
0I
1K
1M
1P
1Y
1Z
#805000000
1!
1&
13
09
1E
1F
1I
0K
0M
1P
0Y
1Z
#810000000
0!
0&
03
19
0E
1F
0I
1K
1M
1P
1Y
1Z
#815000000
1!
1&
13
09
1E
1F
1I
0K
0M
1P
0Y
1Z
#820000000
0!
0&
03
19
0E
1F
0I
1K
1M
1P
1Y
1Z
#825000000
1!
1&
13
09
1E
1F
1I
0K
0M
1P
0Y
1Z
#830000000
0!
0&
03
19
0E
1F
0I
1K
1M
1P
1Y
1Z
#835000000
1!
1&
13
09
1E
1F
1I
0K
0M
1P
0Y
1Z
#840000000
0!
0&
03
19
0E
1F
0I
1K
1M
1P
1Y
1Z
#845000000
1!
1&
13
09
1E
1F
1I
0K
0M
1P
0Y
1Z
#850000000
0!
0&
03
19
0E
1F
0I
1K
1M
1P
1Y
1Z
#855000000
1!
1&
13
09
1E
1F
1I
0K
0M
1P
0Y
1Z
#860000000
0!
0&
03
19
0E
1F
0I
1K
1M
1P
1Y
1Z
#865000000
1!
1&
13
09
1E
1F
1I
0K
0M
1P
0Y
1Z
#870000000
0!
0&
03
19
0E
1F
0I
1K
1M
1P
1Y
1Z
#875000000
1!
1&
13
09
1E
1F
1I
0K
0M
1P
0Y
1Z
#880000000
0!
0&
03
19
0E
1F
0I
1K
1M
1P
1Y
1Z
#885000000
1!
1&
13
09
1E
1F
1I
0K
0M
1P
0Y
1Z
#890000000
0!
0&
03
19
0E
1F
0I
1K
1M
1P
1Y
1Z
#895000000
1!
1&
13
09
1E
1F
1I
0K
0M
1P
0Y
1Z
#900000000
0!
0&
03
19
0E
1F
0I
1K
1M
1P
1Y
1Z
#905000000
1!
1&
13
09
1E
1F
1I
0K
0M
1P
0Y
1Z
#910000000
0!
0&
03
19
0E
1F
0I
1K
1M
1P
1Y
1Z
#915000000
1!
1&
13
09
1E
1F
1I
0K
0M
1P
0Y
1Z
#920000000
0!
0&
03
19
0E
1F
0I
1K
1M
1P
1Y
1Z
#925000000
1!
1&
13
09
1E
1F
1I
0K
0M
1P
0Y
1Z
#930000000
0!
0&
03
19
0E
1F
0I
1K
1M
1P
1Y
1Z
#935000000
1!
1&
13
09
1E
1F
1I
0K
0M
1P
0Y
1Z
#940000000
0!
0&
03
19
0E
1F
0I
1K
1M
1P
1Y
1Z
#945000000
1!
1&
13
09
1E
1F
1I
0K
0M
1P
0Y
1Z
#950000000
0!
0&
03
19
0E
1F
0I
1K
1M
1P
1Y
1Z
#955000000
1!
1&
13
09
1E
1F
1I
0K
0M
1P
0Y
1Z
#960000000
0!
0&
03
19
0E
1F
0I
1K
1M
1P
1Y
1Z
#965000000
1!
1&
13
09
1E
1F
1I
0K
0M
1P
0Y
1Z
#970000000
0!
0&
03
19
0E
1F
0I
1K
1M
1P
1Y
1Z
#975000000
1!
1&
13
09
1E
1F
1I
0K
0M
1P
0Y
1Z
#980000000
0!
0&
03
19
0E
1F
0I
1K
1M
1P
1Y
1Z
#985000000
1!
1&
13
09
1E
1F
1I
0K
0M
1P
0Y
1Z
#990000000
0!
0&
03
19
0E
1F
0I
1K
1M
1P
1Y
1Z
#995000000
1!
1&
13
09
1E
1F
1I
0K
0M
1P
0Y
1Z
