workspace/Abel/multip/sim.vcd
$date
  Fri Jun 19 20:07:50 2020
$end
$version
  GHDL v0
$end
$timescale
  1 fs
$end
$scope module standard $end
$upscope $end
$scope module textio $end
$upscope $end
$scope module std_logic_1164 $end
$upscope $end
$scope module pmonitor $end
$upscope $end
$scope module test_automat $end
$var reg 1 ! clk $end
$var reg 1 " clr $end
$var reg 1 # v $end
$var reg 1 $ lsb $end
$var reg 1 % start $end
$var reg 3 & count[2:0] $end
$scope module instanta_automat $end
$var real 64 ' vcc $end
$var reg 1 ( clk $end
$var reg 1 ) clr $end
$var reg 1 * v $end
$var reg 1 + lsb $end
$var reg 1 , start $end
$var reg 1 - q2 $end
$var reg 1 . q1 $end
$var reg 1 / q0 $end
$var reg 1 0 qbar2 $end
$var reg 1 1 qbar1 $end
$var reg 1 2 qbar0 $end
$var reg 1 3 out_poarta $end
$var reg 1 4 out_poarta_a $end
$var reg 1 5 out_poarta_b $end
$var reg 1 6 out_poarta_c $end
$var reg 1 7 out_poarta_d $end
$var reg 1 8 out_poarta_1 $end
$var reg 1 9 out_poarta_2 $end
$var reg 1 : out_poarta_3 $end
$var reg 1 ; out_poarta_4 $end
$var reg 1 < out_poarta_5 $end
$var reg 1 = out_poarta_6 $end
$var reg 1 > out_poarta_7 $end
$var reg 1 ? out_poarta_8 $end
$var reg 1 @ out_poarta_9 $end
$var reg 1 A out_poarta_10 $end
$var reg 1 B out_poarta_11 $end
$var reg 1 C out_poarta_12 $end
$var reg 1 D out_poarta_13 $end
$scope module d2 $end
$var real 64 E vcc $end
$var reg 1 F a $end
$var reg 1 G b $end
$var reg 1 H c $end
$var reg 1 I d $end
$var reg 1 J o $end
$upscope $end
$scope module bist2 $end
$var real 64 K vcc $end
$var reg 1 L pre $end
$var reg 1 M clr $end
$var reg 1 N clk $end
$var reg 1 O d $end
$var reg 1 P q $end
$var reg 1 Q qbar $end
$var reg 1 R u1out $end
$var reg 1 S u2out $end
$var reg 1 T u3out $end
$var reg 1 U u4out $end
$var reg 1 V u5out $end
$var reg 1 W u6out $end
$var reg 1 X u1outd $end
$var reg 1 Y u2outd $end
$var reg 1 Z u3outd $end
$var reg 1 [ u4outd $end
$var reg 1 \ u5outd $end
$var reg 1 ] u6outd $end
$scope module u1 $end
$var real 64 ^ vcc $end
$var reg 1 _ a $end
$var reg 1 ` b $end
$var reg 1 a c $end
$var reg 1 b o $end
$upscope $end
$scope module u2 $end
$var real 64 c vcc $end
$var reg 1 d a $end
$var reg 1 e b $end
$var reg 1 f c $end
$var reg 1 g o $end
$upscope $end
$scope module u3 $end
$var real 64 h vcc $end
$var reg 1 i a $end
$var reg 1 j b $end
$var reg 1 k c $end
$var reg 1 l o $end
$upscope $end
$scope module u4 $end
$var real 64 m vcc $end
$var reg 1 n a $end
$var reg 1 o b $end
$var reg 1 p c $end
$var reg 1 q o $end
$upscope $end
$scope module u5 $end
$var real 64 r vcc $end
$var reg 1 s a $end
$var reg 1 t b $end
$var reg 1 u c $end
$var reg 1 v o $end
$upscope $end
$scope module u6 $end
$var real 64 w vcc $end
$var reg 1 x a $end
$var reg 1 y b $end
$var reg 1 z c $end
$var reg 1 { o $end
$upscope $end
$upscope $end
$scope module poartab $end
$var real 64 | vcc $end
$var reg 1 } a $end
$var reg 1 !" b $end
$var reg 1 "" c $end
$var reg 1 #" o $end
$upscope $end
$scope module poartac $end
$var real 64 $" vcc $end
$var reg 1 %" a $end
$var reg 1 &" b $end
$var reg 1 '" c $end
$var reg 1 (" o $end
$upscope $end
$scope module d1 $end
$var real 64 )" vcc $end
$var reg 1 *" a $end
$var reg 1 +" b $end
$var reg 1 ," o $end
$upscope $end
$scope module bist1 $end
$var real 64 -" vcc $end
$var reg 1 ." pre $end
$var reg 1 /" clr $end
$var reg 1 0" clk $end
$var reg 1 1" d $end
$var reg 1 2" q $end
$var reg 1 3" qbar $end
$var reg 1 4" u1out $end
$var reg 1 5" u2out $end
$var reg 1 6" u3out $end
$var reg 1 7" u4out $end
$var reg 1 8" u5out $end
$var reg 1 9" u6out $end
$var reg 1 :" u1outd $end
$var reg 1 ;" u2outd $end
$var reg 1 <" u3outd $end
$var reg 1 =" u4outd $end
$var reg 1 >" u5outd $end
$var reg 1 ?" u6outd $end
$scope module u1 $end
$var real 64 @" vcc $end
$var reg 1 A" a $end
$var reg 1 B" b $end
$var reg 1 C" c $end
$var reg 1 D" o $end
$upscope $end
$scope module u2 $end
$var real 64 E" vcc $end
$var reg 1 F" a $end
$var reg 1 G" b $end
$var reg 1 H" c $end
$var reg 1 I" o $end
$upscope $end
$scope module u3 $end
$var real 64 J" vcc $end
$var reg 1 K" a $end
$var reg 1 L" b $end
$var reg 1 M" c $end
$var reg 1 N" o $end
$upscope $end
$scope module u4 $end
$var real 64 O" vcc $end
$var reg 1 P" a $end
$var reg 1 Q" b $end
$var reg 1 R" c $end
$var reg 1 S" o $end
$upscope $end
$scope module u5 $end
$var real 64 T" vcc $end
$var reg 1 U" a $end
$var reg 1 V" b $end
$var reg 1 W" c $end
$var reg 1 X" o $end
$upscope $end
$scope module u6 $end
$var real 64 Y" vcc $end
$var reg 1 Z" a $end
$var reg 1 [" b $end
$var reg 1 \" c $end
$var reg 1 ]" o $end
$upscope $end
$upscope $end
$scope module poarta1 $end
$var real 64 ^" vcc $end
$var reg 1 _" a $end
$var reg 1 `" b $end
$var reg 1 a" o $end
$upscope $end
$scope module poarta2 $end
$var real 64 b" vcc $end
$var reg 1 c" a $end
$var reg 1 d" b $end
$var reg 1 e" o $end
$upscope $end
$scope module poarta3 $end
$var real 64 f" vcc $end
$var reg 1 g" a $end
$var reg 1 h" b $end
$var reg 1 i" o $end
$upscope $end
$scope module poarta4 $end
$var real 64 j" vcc $end
$var reg 1 k" a $end
$var reg 1 l" b $end
$var reg 1 m" o $end
$upscope $end
$scope module poarta5 $end
$var real 64 n" vcc $end
$var reg 1 o" a $end
$var reg 1 p" b $end
$var reg 1 q" o $end
$upscope $end
$scope module poarta6 $end
$var real 64 r" vcc $end
$var reg 1 s" a $end
$var reg 1 t" b $end
$var reg 1 u" o $end
$upscope $end
$scope module poarta7 $end
$var real 64 v" vcc $end
$var reg 1 w" a $end
$var reg 1 x" b $end
$var reg 1 y" o $end
$upscope $end
$scope module poarta8 $end
$var real 64 z" vcc $end
$var reg 1 {" a $end
$var reg 1 |" b $end
$var reg 1 }" o $end
$upscope $end
$scope module poarta9 $end
$var real 64 !# vcc $end
$var reg 1 "# a $end
$var reg 1 ## b $end
$var reg 1 $# o $end
$upscope $end
$scope module poarta10 $end
$var real 64 %# vcc $end
$var reg 1 &# a $end
$var reg 1 '# b $end
$var reg 1 (# c $end
$var reg 1 )# o $end
$upscope $end
$scope module poarta11 $end
$var real 64 *# vcc $end
$var reg 1 +# a $end
$var reg 1 ,# b $end
$var reg 1 -# o $end
$upscope $end
$scope module poarta12 $end
$var real 64 .# vcc $end
$var reg 1 /# a $end
$var reg 1 0# b $end
$var reg 1 1# o $end
$upscope $end
$scope module d0 $end
$var real 64 2# vcc $end
$var reg 1 3# a $end
$var reg 1 4# b $end
$var reg 1 5# o $end
$upscope $end
$scope module bist0 $end
$var real 64 6# vcc $end
$var reg 1 7# pre $end
$var reg 1 8# clr $end
$var reg 1 9# clk $end
$var reg 1 :# d $end
$var reg 1 ;# q $end
$var reg 1 <# qbar $end
$var reg 1 =# u1out $end
$var reg 1 ># u2out $end
$var reg 1 ?# u3out $end
$var reg 1 @# u4out $end
$var reg 1 A# u5out $end
$var reg 1 B# u6out $end
$var reg 1 C# u1outd $end
$var reg 1 D# u2outd $end
$var reg 1 E# u3outd $end
$var reg 1 F# u4outd $end
$var reg 1 G# u5outd $end
$var reg 1 H# u6outd $end
$scope module u1 $end
$var real 64 I# vcc $end
$var reg 1 J# a $end
$var reg 1 K# b $end
$var reg 1 L# c $end
$var reg 1 M# o $end
$upscope $end
$scope module u2 $end
$var real 64 N# vcc $end
$var reg 1 O# a $end
$var reg 1 P# b $end
$var reg 1 Q# c $end
$var reg 1 R# o $end
$upscope $end
$scope module u3 $end
$var real 64 S# vcc $end
$var reg 1 T# a $end
$var reg 1 U# b $end
$var reg 1 V# c $end
$var reg 1 W# o $end
$upscope $end
$scope module u4 $end
$var real 64 X# vcc $end
$var reg 1 Y# a $end
$var reg 1 Z# b $end
$var reg 1 [# c $end
$var reg 1 \# o $end
$upscope $end
$scope module u5 $end
$var real 64 ]# vcc $end
$var reg 1 ^# a $end
$var reg 1 _# b $end
$var reg 1 `# c $end
$var reg 1 a# o $end
$upscope $end
$scope module u6 $end
$var real 64 b# vcc $end
$var reg 1 c# a $end
$var reg 1 d# b $end
$var reg 1 e# c $end
$var reg 1 f# o $end
$upscope $end
$upscope $end
$upscope $end
$upscope $end
$enddefinitions $end
#0
0!
0"
1#
1$
0%
bUUU &
r3.3 '
0(
0)
1*
1+
0,
U-
U.
U/
U0
U1
U2
U3
U4
U5
U6
U7
08
U9
U:
U;
U<
U=
0>
U?
U@
UA
UB
UC
UD
r3.3 E
UF
UG
UH
1I
UJ
r3.3 K
1L
0M
0N
UO
UP
UQ
UR
1S
1T
1U
UV
1W
UX
UY
UZ
U[
U\
U]
r3.3 ^
1_
U`
Ua
Ub
r3.3 c
Ud
0e
0f
1g
r3.3 h
Ui
0j
Uk
1l
r3.3 m
Un
0o
Up
1q
r3.3 r
1s
Ut
Uu
Uv
r3.3 w
Ux
0y
Uz
1{
r3.3 |
U}
U!"
U""
U#"
r3.3 $"
U%"
U&"
U'"
U("
r3.3 )"
U*"
U+"
U,"
r3.3 -"
1."
0/"
00"
U1"
U2"
U3"
U4"
15"
16"
17"
U8"
19"
U:"
U;"
U<"
U="
U>"
U?"
r3.3 @"
1A"
UB"
UC"
UD"
r3.3 E"
UF"
0G"
0H"
1I"
r3.3 J"
UK"
0L"
UM"
1N"
r3.3 O"
UP"
0Q"
UR"
1S"
r3.3 T"
1U"
UV"
UW"
UX"
r3.3 Y"
UZ"
0["
U\"
1]"
r3.3 ^"
0_"
U`"
0a"
r3.3 b"
Uc"
Ud"
Ue"
r3.3 f"
1g"
Uh"
Ui"
r3.3 j"
Uk"
Ul"
Um"
r3.3 n"
1o"
Up"
Uq"
r3.3 r"
Us"
Ut"
Uu"
r3.3 v"
0w"
Ux"
0y"
r3.3 z"
U{"
U|"
U}"
r3.3 !#
U"#
U##
U$#
r3.3 %#
U&#
U'#
U(#
U)#
r3.3 *#
0+#
U,#
U-#
r3.3 .#
U/#
U0#
U1#
r3.3 2#
U3#
U4#
U5#
r3.3 6#
17#
08#
09#
U:#
U;#
U<#
U=#
1>#
1?#
1@#
UA#
1B#
UC#
UD#
UE#
UF#
UG#
UH#
r3.3 I#
1J#
UK#
UL#
UM#
r3.3 N#
UO#
0P#
0Q#
1R#
r3.3 S#
UT#
0U#
UV#
1W#
r3.3 X#
UY#
0Z#
U[#
1\#
r3.3 ]#
1^#
U_#
U`#
Ua#
r3.3 b#
Uc#
0d#
Ue#
1f#
#100000
10
11
12
19
1:
1F
UJ
1Q
0R
0V
0X
1Y
1[
1]
1`
1a
0b
0d
1i
1k
1t
1u
0v
1}
1!"
U#"
1%"
1'"
U("
13"
04"
08"
0:"
1;"
1="
1?"
1B"
1C"
0D"
0F"
1K"
1M"
1V"
1W"
0X"
1`"
0a"
1c"
1d"
1e"
1h"
1i"
1l"
Um"
1x"
0y"
1{"
U}"
1(#
U)#
1<#
0=#
0A#
0C#
1D#
1F#
1H#
1K#
1L#
0M#
0O#
1T#
1V#
1_#
1`#
0a#
#200000
1Z
1n
1z
1<"
1P"
1\"
1E#
1Y#
1e#
#300000
b000 &
0-
0.
0/
04
05
06
07
0;
0<
0=
0?
0@
0A
0B
0C
0D
0G
0H
0J
0O
0P
0\
0p
0x
0""
0#"
0&"
0("
0*"
0+"
0,"
01"
02"
0>"
0R"
0Z"
0k"
0m"
0p"
0q"
0s"
0t"
0u"
0|"
0}"
0"#
0##
0$#
0&#
0'#
0)#
0,#
0-#
0/#
00#
01#
03#
04#
05#
0:#
0;#
0G#
0[#
0c#
#5000000
1!
1(
1N
0T
1f
1j
0l
10"
06"
1H"
1L"
0N"
19#
0?#
1Q#
1U#
0W#
#5200000
0Z
0n
0z
0<"
0P"
0\"
0E#
0Y#
0e#
#10000000
0!
1"
0(
1)
1M
0N
1T
1e
0f
0j
1l
1o
1y
1/"
00"
16"
1G"
0H"
0L"
1N"
1Q"
1["
18#
09#
1?#
1P#
0Q#
0U#
1W#
1Z#
1d#
#10200000
1Z
1n
1z
1<"
1P"
1\"
1E#
1Y#
1e#
#15000000
1!
1(
1N
0T
1f
1j
0l
10"
06"
1H"
1L"
0N"
19#
0?#
1Q#
1U#
0W#
#15200000
0Z
0n
0z
0<"
0P"
0\"
0E#
0Y#
0e#
#20000000
0!
0(
0N
1T
0f
0j
1l
00"
16"
0H"
0L"
1N"
09#
1?#
0Q#
0U#
1W#
#20200000
1Z
1n
1z
1<"
1P"
1\"
1E#
1Y#
1e#
#25000000
1!
1(
1N
0T
1f
1j
0l
10"
06"
1H"
1L"
0N"
19#
0?#
1Q#
1U#
0W#
#25200000
0Z
0n
0z
0<"
0P"
0\"
0E#
0Y#
0e#
#30000000
0!
0(
0N
1T
0f
0j
1l
00"
16"
0H"
0L"
1N"
09#
1?#
0Q#
0U#
1W#
#30200000
1Z
1n
1z
1<"
1P"
1\"
1E#
1Y#
1e#
#35000000
1!
1(
1N
0T
1f
1j
0l
10"
06"
1H"
1L"
0N"
19#
0?#
1Q#
1U#
0W#
#35200000
0Z
0n
0z
0<"
0P"
0\"
0E#
0Y#
0e#
#40000000
0!
0(
0N
1T
0f
0j
1l
00"
16"
0H"
0L"
1N"
09#
1?#
0Q#
0U#
1W#
#40200000
1Z
1n
1z
1<"
1P"
1\"
1E#
1Y#
1e#
#45000000
1!
1(
1N
0T
1f
1j
0l
10"
06"
1H"
1L"
0N"
19#
0?#
1Q#
1U#
0W#
#45200000
0Z
0n
0z
0<"
0P"
0\"
0E#
0Y#
0e#
#50000000
0!
0(
0N
1T
0f
0j
1l
00"
16"
0H"
0L"
1N"
09#
1?#
0Q#
0U#
1W#
#50200000
1Z
1n
1z
1<"
1P"
1\"
1E#
1Y#
1e#
#55000000
1!
0#
1(
0*
0I
0J
1N
0T
1f
1j
0l
10"
06"
1H"
1L"
0N"
0o"
0q"
19#
0?#
1Q#
1U#
0W#
#55200000
0Z
0n
0z
0<"
0P"
0\"
0E#
0Y#
0e#
#60000000
0!
0(
0N
1T
0f
0j
1l
00"
16"
0H"
0L"
1N"
09#
1?#
0Q#
0U#
1W#
#60200000
1Z
1n
1z
1<"
1P"
1\"
1E#
1Y#
1e#
#65000000
1!
1%
1(
1,
18
1>
1B
1D
1N
0T
1f
1j
0l
10"
06"
1H"
1L"
0N"
1_"
1a"
1w"
1y"
1+#
1-#
13#
15#
19#
1:#
0?#
0@#
1Q#
1U#
0W#
1[#
0\#
#65100000
1=#
0>#
1?#
1C#
0F#
0K#
1M#
1O#
0R#
0V#
1W#
#65200000
0Z
0n
0z
0<"
0P"
0\"
1A#
0D#
0L#
0T#
0_#
1a#
#65300000
#65400000
b001 &
1/
15
17
1""
1#"
1*"
1,"
11"
1R"
1p"
0q"
1&#
0)#
1;#
0B#
1G#
1c#
0f#
#65500000
02
08
0:
0>
0B
0D
0F
0J
0'"
0("
0`"
0a"
0h"
0i"
0w"
0y"
0{"
0}"
0+#
0-#
03#
05#
0:#
0<#
1@#
0H#
0[#
1\#
0`#
#65600000
1F#
1K#
1V#
#70000000
0!
0(
0N
1T
0f
0j
1l
00"
16"
0H"
0L"
1N"
09#
1>#
0Q#
1R#
0U#
#70100000
0=#
0C#
1D#
1L#
0M#
0O#
1T#
1_#
#70200000
1Z
1n
1z
07"
1<"
1P"
0S"
1\"
#70300000
14"
1:"
0="
0B"
1D"
1F"
0M"
#75000000
1!
0%
1(
0,
1N
0T
1f
1j
0l
10"
05"
1H"
0I"
1L"
0_"
0a"
19#
0?#
1Q#
1U#
0W#
#75100000
18"
0;"
0C"
0K"
0V"
1X"
#75200000
0Z
0n
0z
1B#
0E#
0Y#
0e#
1f#
#75300000
b011 &
1.
12
16
1:
1;
1?
1A
1B
1C
1D
1F
1G
0J
1&"
1'"
1("
1+"
1,"
12"
09"
1>"
1Z"
0]"
1`"
0a"
1h"
1i"
1k"
1m"
1s"
0u"
1{"
1|"
1}"
1'#
1)#
1,#
1-#
10#
11#
13#
14#
15#
1:#
1<#
0A#
1H#
1[#
1`#
0a#
#75400000
01
05
09
0!"
0#"
0*"
1,"
03"
0?"
0W"
0c"
0e"
0x"
0y"
#75500000
b010 &
0/
0A
0C
0""
0#"
0p"
0q"
0&#
0)#
00#
01#
04#
15#
0;#
0G#
0c#
#80000000
0!
0(
0N
1T
0f
0j
1l
00"
15"
0H"
1I"
0L"
09#
1?#
0Q#
0U#
1W#
#80100000
1;"
1C"
1K"
1V"
#80200000
1Z
1n
1z
0@#
1E#
1Y#
0\#
1e#
#80300000
1=#
1C#
0F#
0K#
1M#
1O#
0V#
#85000000
1!
1(
1N
0T
1f
1j
0l
10"
05"
1H"
0I"
1L"
19#
0>#
1Q#
0R#
1U#
#85100000
0;"
0C"
0K"
0V"
1A#
0D#
0L#
0T#
0_#
1a#
#85200000
0Z
0n
0z
#85300000
b011 &
1/
1A
1C
1""
0#"
1p"
0q"
1&#
1)#
10#
11#
14#
15#
1;#
0B#
1G#
1c#
0f#
#85400000
02
06
07
0:
0?
0B
0F
0J
0'"
0("
0+"
0,"
01"
17"
0R"
1S"
0`"
0a"
0h"
0i"
0{"
0}"
0,#
0-#
03#
15#
0<#
0H#
0`#
#85500000
1="
1B"
1M"
#90000000
0!
0(
0N
1T
0f
0j
1l
00"
15"
0H"
1I"
0L"
09#
1>#
0Q#
1R#
0U#
#90100000
04"
0:"
1;"
1C"
0D"
0F"
1K"
1V"
1D#
1L#
1T#
1_#
#90200000
1Z
1n
1z
#95000000
1!
1(
1N
0T
1f
1j
0l
10"
06"
1H"
1L"
0N"
19#
0>#
1Q#
0R#
1U#
#95100000
0D#
0L#
0T#
0_#
#95200000
0Z
0n
0z
19"
0<"
0P"
0\"
1]"
#95300000
11
15
17
19
1!"
1#"
1*"
1,"
11"
13"
08"
1?"
1R"
1W"
0X"
1c"
1e"
1x"
0y"
#95500000
b001 &
0.
0;
0A
0C
0D
0G
0J
0&"
0("
02"
0>"
0Z"
0k"
0m"
0s"
0u"
0|"
0}"
0'#
0)#
00#
01#
04#
05#
0:#
1@#
0[#
1\#
#95600000
1F#
1K#
1V#
#100000000
0!
0(
0N
1T
0f
0j
1l
00"
16"
0H"
0L"
1N"
09#
1>#
0Q#
1R#
0U#
#100100000
0=#
0C#
1D#
1L#
0M#
0O#
1T#
1_#
#100200000
1Z
1n
1z
07"
1<"
1P"
0S"
1\"
#100300000
14"
1:"
0="
0B"
1D"
1F"
0M"
#105000000
1!
0$
1(
0+
1N
0T
1f
1j
0l
10"
05"
1H"
0I"
1L"
0g"
0i"
19#
0?#
1Q#
1U#
0W#
#105100000
18"
0;"
0C"
0K"
0V"
1X"
#105200000
0Z
0n
0z
1B#
0E#
0Y#
0e#
1f#
#105300000
b011 &
1.
12
16
1;
1A
1C
1D
1F
1G
0J
1&"
1'"
1("
1+"
1,"
12"
09"
1>"
1Z"
0]"
1`"
0a"
1h"
0i"
1k"
1m"
1s"
0u"
1|"
0}"
1'#
1)#
10#
11#
14#
15#
1:#
1<#
0A#
1H#
1[#
1`#
0a#
#105400000
01
05
09
0!"
0#"
0*"
1,"
03"
0?"
0W"
0c"
0e"
0x"
0y"
#105500000
b010 &
0/
0A
0C
0D
0""
0#"
0p"
0q"
0&#
0)#
00#
01#
04#
05#
0:#
0;#
0G#
0[#
0c#
#110000000
0!
0(
0N
1T
0f
0j
1l
00"
15"
0H"
1I"
0L"
09#
1?#
0Q#
0U#
1W#
#110100000
1;"
1C"
1K"
1V"
#110200000
1Z
1n
1z
1E#
1Y#
1e#
#115000000
1!
1(
1N
0T
1f
1j
0l
10"
05"
1H"
0I"
1L"
19#
0?#
1Q#
1U#
0W#
#115100000
0;"
0C"
0K"
0V"
#115200000
0Z
0n
0z
0E#
0Y#
0e#
#120000000
0!
0(
0N
1T
0f
0j
1l
00"
15"
0H"
1I"
0L"
09#
1?#
0Q#
0U#
1W#
#120100000
1;"
1C"
1K"
1V"
#120200000
1Z
1n
1z
1E#
1Y#
1e#
#125000000
1!
1(
1N
0T
1f
1j
0l
10"
05"
1H"
0I"
1L"
19#
0?#
1Q#
1U#
0W#
#125100000
0;"
0C"
0K"
0V"
#125200000
0Z
0n
0z
0E#
0Y#
0e#
#130000000
0!
0(
0N
1T
0f
0j
1l
00"
15"
0H"
1I"
0L"
09#
1?#
0Q#
0U#
1W#
#130100000
1;"
1C"
1K"
1V"
#130200000
1Z
1n
1z
1E#
1Y#
1e#
#135000000
1!
1$
1(
1+
1:
1?
1B
1D
1N
0T
1f
1j
0l
10"
05"
1H"
0I"
1L"
1g"
1i"
1{"
1}"
1,#
1-#
13#
15#
19#
1:#
0?#
0@#
1Q#
1U#
0W#
1[#
0\#
#135100000
0;"
0C"
0K"
0V"
1=#
0>#
1?#
1C#
0F#
0K#
1M#
1O#
0R#
0V#
1W#
#135200000
0Z
0n
0z
1A#
0D#
0L#
0T#
0_#
1a#
#135300000
#135400000
b011 &
1/
1A
1C
1""
0#"
1p"
0q"
1&#
1)#
10#
11#
14#
15#
1;#
0B#
1G#
1c#
0f#
#135500000
02
06
07
0:
0?
0B
0F
0J
0'"
0("
0+"
0,"
01"
17"
0R"
1S"
0`"
0a"
0h"
0i"
0{"
0}"
0,#
0-#
03#
15#
0<#
0H#
0`#
#135600000
1="
1B"
1M"
#140000000
0!
0(
0N
1T
0f
0j
1l
00"
15"
0H"
1I"
0L"
09#
1>#
0Q#
1R#
0U#
#140100000
04"
0:"
1;"
1C"
0D"
0F"
1K"
1V"
1D#
1L#
1T#
1_#
#140200000
1Z
1n
1z
#145000000
1!
1(
1N
0T
1f
1j
0l
10"
06"
1H"
1L"
0N"
19#
0>#
1Q#
0R#
1U#
#145100000
0D#
0L#
0T#
0_#
#145200000
0Z
0n
0z
19"
0<"
0P"
0\"
1]"
#145300000
11
15
17
19
1!"
1#"
1*"
1,"
11"
13"
08"
1?"
1R"
1W"
0X"
1c"
1e"
1x"
0y"
#145500000
b001 &
0.
0;
0A
0C
0D
0G
0J
0&"
0("
02"
0>"
0Z"
0k"
0m"
0s"
0u"
0|"
0}"
0'#
0)#
00#
01#
04#
05#
0:#
1@#
0[#
1\#
#145600000
1F#
1K#
1V#
#150000000
0!
0(
0N
1T
0f
0j
1l
00"
16"
0H"
0L"
1N"
09#
1>#
0Q#
1R#
0U#
#150100000
0=#
0C#
1D#
1L#
0M#
0O#
1T#
1_#
#150200000
1Z
1n
1z
07"
1<"
1P"
0S"
1\"
#150300000
14"
1:"
0="
0B"
1D"
1F"
0M"
#155000000
1!
1(
1N
0T
1f
1j
0l
10"
05"
1H"
0I"
1L"
19#
0?#
1Q#
1U#
0W#
#155100000
18"
0;"
0C"
0K"
0V"
1X"
#155200000
0Z
0n
0z
1B#
0E#
0Y#
0e#
1f#
#155300000
b011 &
1.
12
16
1:
1;
1?
1A
1B
1C
1D
1F
1G
0J
1&"
1'"
1("
1+"
1,"
12"
09"
1>"
1Z"
0]"
1`"
0a"
1h"
1i"
1k"
1m"
1s"
0u"
1{"
1|"
1}"
1'#
1)#
1,#
1-#
10#
11#
13#
14#
15#
1:#
1<#
0A#
1H#
1[#
1`#
0a#
#155400000
01
05
09
0!"
0#"
0*"
1,"
03"
0?"
0W"
0c"
0e"
0x"
0y"
#155500000
b010 &
0/
0A
0C
0""
0#"
0p"
0q"
0&#
0)#
00#
01#
04#
15#
0;#
0G#
0c#
#160000000
0!
0(
0N
1T
0f
0j
1l
00"
15"
0H"
1I"
0L"
09#
1?#
0Q#
0U#
1W#
#160100000
1;"
1C"
1K"
1V"
#160200000
1Z
1n
1z
0@#
1E#
1Y#
0\#
1e#
#160300000
1=#
1C#
0F#
0K#
1M#
1O#
0V#
#165000000
1!
1(
1N
0T
1f
1j
0l
10"
05"
1H"
0I"
1L"
19#
0>#
1Q#
0R#
1U#
#165100000
0;"
0C"
0K"
0V"
1A#
0D#
0L#
0T#
0_#
1a#
#165200000
0Z
0n
0z
#165300000
b011 &
1/
1A
1C
1""
0#"
1p"
0q"
1&#
1)#
10#
11#
14#
15#
1;#
0B#
1G#
1c#
0f#
#165400000
02
06
07
0:
0?
0B
0F
0J
0'"
0("
0+"
0,"
01"
17"
0R"
1S"
0`"
0a"
0h"
0i"
0{"
0}"
0,#
0-#
03#
15#
0<#
0H#
0`#
#165500000
1="
1B"
1M"
#170000000
0!
0(
0N
1T
0f
0j
1l
00"
15"
0H"
1I"
0L"
09#
1>#
0Q#
1R#
0U#
#170100000
04"
0:"
1;"
1C"
0D"
0F"
1K"
1V"
1D#
1L#
1T#
1_#
#170200000
1Z
1n
1z
#175000000
1!
1(
1N
0T
1f
1j
0l
10"
06"
1H"
1L"
0N"
19#
0>#
1Q#
0R#
1U#
#175100000
0D#
0L#
0T#
0_#
#175200000
0Z
0n
0z
19"
0<"
0P"
0\"
1]"
#175300000
11
15
17
19
1!"
1#"
1*"
1,"
11"
13"
08"
1?"
1R"
1W"
0X"
1c"
1e"
1x"
0y"
#175500000
b001 &
0.
0;
0A
0C
0D
0G
0J
0&"
0("
02"
0>"
0Z"
0k"
0m"
0s"
0u"
0|"
0}"
0'#
0)#
00#
01#
04#
05#
0:#
1@#
0[#
1\#
#175600000
1F#
1K#
1V#
#180000000
0!
0(
0N
1T
0f
0j
1l
00"
16"
0H"
0L"
1N"
09#
1>#
0Q#
1R#
0U#
#180100000
0=#
0C#
1D#
1L#
0M#
0O#
1T#
1_#
#180200000
1Z
1n
1z
07"
1<"
1P"
0S"
1\"
#180300000
14"
1:"
0="
0B"
1D"
1F"
0M"
#185000000
1!
1(
1N
0T
1f
1j
0l
10"
05"
1H"
0I"
1L"
19#
0?#
1Q#
1U#
0W#
#185100000
18"
0;"
0C"
0K"
0V"
1X"
#185200000
0Z
0n
0z
1B#
0E#
0Y#
0e#
1f#
#185300000
b011 &
1.
12
16
1:
1;
1?
1A
1B
1C
1D
1F
1G
0J
1&"
1'"
1("
1+"
1,"
12"
09"
1>"
1Z"
0]"
1`"
0a"
1h"
1i"
1k"
1m"
1s"
0u"
1{"
1|"
1}"
1'#
1)#
1,#
1-#
10#
11#
13#
14#
15#
1:#
1<#
0A#
1H#
1[#
1`#
0a#
#185400000
01
05
09
0!"
0#"
0*"
1,"
03"
0?"
0W"
0c"
0e"
0x"
0y"
#185500000
b010 &
0/
0A
0C
0""
0#"
0p"
0q"
0&#
0)#
00#
01#
04#
15#
0;#
0G#
0c#
#190000000
0!
0(
0N
1T
0f
0j
1l
00"
15"
0H"
1I"
0L"
09#
1?#
0Q#
0U#
1W#
#190100000
1;"
1C"
1K"
1V"
#190200000
1Z
1n
1z
0@#
1E#
1Y#
0\#
1e#
#190300000
1=#
1C#
0F#
0K#
1M#
1O#
0V#
#195000000
1!
1(
1N
0T
1f
1j
0l
10"
05"
1H"
0I"
1L"
19#
0>#
1Q#
0R#
1U#
#195100000
0;"
0C"
0K"
0V"
1A#
0D#
0L#
0T#
0_#
1a#
#195200000
0Z
0n
0z
#195300000
b011 &
1/
1A
1C
1""
0#"
1p"
0q"
1&#
1)#
10#
11#
14#
15#
1;#
0B#
1G#
1c#
0f#
#195400000
02
06
07
0:
0?
0B
0F
0J
0'"
0("
0+"
0,"
01"
17"
0R"
1S"
0`"
0a"
0h"
0i"
0{"
0}"
0,#
0-#
03#
15#
0<#
0H#
0`#
#195500000
1="
1B"
1M"
#200000000
0!
0(
0N
1T
0f
0j
1l
00"
15"
0H"
1I"
0L"
09#
1>#
0Q#
1R#
0U#
#200100000
04"
0:"
1;"
1C"
0D"
0F"
1K"
1V"
1D#
1L#
1T#
1_#
#200200000
1Z
1n
1z
#205000000
1!
1(
1N
0T
1f
1j
0l
10"
06"
1H"
1L"
0N"
19#
0>#
1Q#
0R#
1U#
#205100000
0D#
0L#
0T#
0_#
#205200000
0Z
0n
0z
19"
0<"
0P"
0\"
1]"
#205300000
11
15
17
19
1!"
1#"
1*"
1,"
11"
13"
08"
1?"
1R"
1W"
0X"
1c"
1e"
1x"
0y"
#205500000
b001 &
0.
0;
0A
0C
0D
0G
0J
0&"
0("
02"
0>"
0Z"
0k"
0m"
0s"
0u"
0|"
0}"
0'#
0)#
00#
01#
04#
05#
0:#
1@#
0[#
1\#
#205600000
1F#
1K#
1V#
#210000000
0!
0(
0N
1T
0f
0j
1l
00"
16"
0H"
0L"
1N"
09#
1>#
0Q#
1R#
0U#
#210100000
0=#
0C#
1D#
1L#
0M#
0O#
1T#
1_#
#210200000
1Z
1n
1z
07"
1<"
1P"
0S"
1\"
#210300000
14"
1:"
0="
0B"
1D"
1F"
0M"
#215000000
1!
1(
1N
0T
1f
1j
0l
10"
05"
1H"
0I"
1L"
19#
0?#
1Q#
1U#
0W#
#215100000
18"
0;"
0C"
0K"
0V"
1X"
#215200000
0Z
0n
0z
1B#
0E#
0Y#
0e#
1f#
#215300000
b011 &
1.
12
16
1:
1;
1?
1A
1B
1C
1D
1F
1G
0J
1&"
1'"
1("
1+"
1,"
12"
09"
1>"
1Z"
0]"
1`"
0a"
1h"
1i"
1k"
1m"
1s"
0u"
1{"
1|"
1}"
1'#
1)#
1,#
1-#
10#
11#
13#
14#
15#
1:#
1<#
0A#
1H#
1[#
1`#
0a#
