workspace/Abel/multip/sim.vcd
$date
  Fri Jun 19 20:29:27 2020
$end
$version
  GHDL v0
$end
$timescale
  1 fs
$end
$scope module standard $end
$upscope $end
$scope module textio $end
$upscope $end
$scope module std_logic_1164 $end
$upscope $end
$scope module pmonitor $end
$upscope $end
$scope module test_automat $end
$var reg 1 ! clk $end
$var reg 1 " clr $end
$var reg 1 # v $end
$var reg 1 $ lsb $end
$var reg 1 % start $end
$var reg 3 & count[2:0] $end
$scope module instanta_automat $end
$var real 64 ' vcc $end
$var reg 1 ( clk $end
$var reg 1 ) clr $end
$var reg 1 * v $end
$var reg 1 + lsb $end
$var reg 1 , start $end
$var reg 1 - q2 $end
$var reg 1 . q1 $end
$var reg 1 / q0 $end
$var reg 1 0 qbar2 $end
$var reg 1 1 qbar1 $end
$var reg 1 2 qbar0 $end
$var reg 1 3 vbar $end
$var reg 1 4 out_poarta $end
$var reg 1 5 out_poarta_a $end
$var reg 1 6 out_poarta_b $end
$var reg 1 7 out_poarta_c $end
$var reg 1 8 out_poarta_d $end
$var reg 1 9 out_poarta_1 $end
$var reg 1 : out_poarta_2 $end
$var reg 1 ; out_poarta_3 $end
$var reg 1 < out_poarta_4 $end
$var reg 1 = out_poarta_5 $end
$var reg 1 > out_poarta_6 $end
$var reg 1 ? out_poarta_7 $end
$var reg 1 @ out_poarta_8 $end
$var reg 1 A out_poarta_9 $end
$var reg 1 B out_poarta_10 $end
$var reg 1 C out_poarta_11 $end
$var reg 1 D out_poarta_12 $end
$var reg 1 E out_poarta_13 $end
$scope module d2 $end
$var real 64 F vcc $end
$var reg 1 G a $end
$var reg 1 H b $end
$var reg 1 I c $end
$var reg 1 J d $end
$var reg 1 K o $end
$upscope $end
$scope module bist2 $end
$var real 64 L vcc $end
$var reg 1 M pre $end
$var reg 1 N clr $end
$var reg 1 O clk $end
$var reg 1 P d $end
$var reg 1 Q q $end
$var reg 1 R qbar $end
$var reg 1 S u1out $end
$var reg 1 T u2out $end
$var reg 1 U u3out $end
$var reg 1 V u4out $end
$var reg 1 W u5out $end
$var reg 1 X u6out $end
$var reg 1 Y u1outd $end
$var reg 1 Z u2outd $end
$var reg 1 [ u3outd $end
$var reg 1 \ u4outd $end
$var reg 1 ] u5outd $end
$var reg 1 ^ u6outd $end
$scope module u1 $end
$var real 64 _ vcc $end
$var reg 1 ` a $end
$var reg 1 a b $end
$var reg 1 b c $end
$var reg 1 c o $end
$upscope $end
$scope module u2 $end
$var real 64 d vcc $end
$var reg 1 e a $end
$var reg 1 f b $end
$var reg 1 g c $end
$var reg 1 h o $end
$upscope $end
$scope module u3 $end
$var real 64 i vcc $end
$var reg 1 j a $end
$var reg 1 k b $end
$var reg 1 l c $end
$var reg 1 m o $end
$upscope $end
$scope module u4 $end
$var real 64 n vcc $end
$var reg 1 o a $end
$var reg 1 p b $end
$var reg 1 q c $end
$var reg 1 r o $end
$upscope $end
$scope module u5 $end
$var real 64 s vcc $end
$var reg 1 t a $end
$var reg 1 u b $end
$var reg 1 v c $end
$var reg 1 w o $end
$upscope $end
$scope module u6 $end
$var real 64 x vcc $end
$var reg 1 y a $end
$var reg 1 z b $end
$var reg 1 { c $end
$var reg 1 | o $end
$upscope $end
$upscope $end
$scope module poartab $end
$var real 64 } vcc $end
$var reg 1 !" a $end
$var reg 1 "" b $end
$var reg 1 #" c $end
$var reg 1 $" o $end
$upscope $end
$scope module poartac $end
$var real 64 %" vcc $end
$var reg 1 &" a $end
$var reg 1 '" b $end
$var reg 1 (" c $end
$var reg 1 )" o $end
$upscope $end
$scope module d1 $end
$var real 64 *" vcc $end
$var reg 1 +" a $end
$var reg 1 ," b $end
$var reg 1 -" o $end
$upscope $end
$scope module bist1 $end
$var real 64 ." vcc $end
$var reg 1 /" pre $end
$var reg 1 0" clr $end
$var reg 1 1" clk $end
$var reg 1 2" d $end
$var reg 1 3" q $end
$var reg 1 4" qbar $end
$var reg 1 5" u1out $end
$var reg 1 6" u2out $end
$var reg 1 7" u3out $end
$var reg 1 8" u4out $end
$var reg 1 9" u5out $end
$var reg 1 :" u6out $end
$var reg 1 ;" u1outd $end
$var reg 1 <" u2outd $end
$var reg 1 =" u3outd $end
$var reg 1 >" u4outd $end
$var reg 1 ?" u5outd $end
$var reg 1 @" u6outd $end
$scope module u1 $end
$var real 64 A" vcc $end
$var reg 1 B" a $end
$var reg 1 C" b $end
$var reg 1 D" c $end
$var reg 1 E" o $end
$upscope $end
$scope module u2 $end
$var real 64 F" vcc $end
$var reg 1 G" a $end
$var reg 1 H" b $end
$var reg 1 I" c $end
$var reg 1 J" o $end
$upscope $end
$scope module u3 $end
$var real 64 K" vcc $end
$var reg 1 L" a $end
$var reg 1 M" b $end
$var reg 1 N" c $end
$var reg 1 O" o $end
$upscope $end
$scope module u4 $end
$var real 64 P" vcc $end
$var reg 1 Q" a $end
$var reg 1 R" b $end
$var reg 1 S" c $end
$var reg 1 T" o $end
$upscope $end
$scope module u5 $end
$var real 64 U" vcc $end
$var reg 1 V" a $end
$var reg 1 W" b $end
$var reg 1 X" c $end
$var reg 1 Y" o $end
$upscope $end
$scope module u6 $end
$var real 64 Z" vcc $end
$var reg 1 [" a $end
$var reg 1 \" b $end
$var reg 1 ]" c $end
$var reg 1 ^" o $end
$upscope $end
$upscope $end
$scope module poarta1 $end
$var real 64 _" vcc $end
$var reg 1 `" a $end
$var reg 1 a" b $end
$var reg 1 b" o $end
$upscope $end
$scope module poarta2 $end
$var real 64 c" vcc $end
$var reg 1 d" a $end
$var reg 1 e" b $end
$var reg 1 f" o $end
$upscope $end
$scope module poarta3 $end
$var real 64 g" vcc $end
$var reg 1 h" a $end
$var reg 1 i" b $end
$var reg 1 j" o $end
$upscope $end
$scope module poarta4 $end
$var real 64 k" vcc $end
$var reg 1 l" a $end
$var reg 1 m" b $end
$var reg 1 n" o $end
$upscope $end
$scope module poarta5 $end
$var real 64 o" vcc $end
$var reg 1 p" a $end
$var reg 1 q" b $end
$var reg 1 r" o $end
$upscope $end
$scope module poarta6 $end
$var real 64 s" vcc $end
$var reg 1 t" a $end
$var reg 1 u" b $end
$var reg 1 v" o $end
$upscope $end
$scope module poarta7 $end
$var real 64 w" vcc $end
$var reg 1 x" a $end
$var reg 1 y" b $end
$var reg 1 z" o $end
$upscope $end
$scope module poarta8 $end
$var real 64 {" vcc $end
$var reg 1 |" a $end
$var reg 1 }" b $end
$var reg 1 !# o $end
$upscope $end
$scope module poarta9 $end
$var real 64 "# vcc $end
$var reg 1 ## a $end
$var reg 1 $# b $end
$var reg 1 %# o $end
$upscope $end
$scope module poarta10 $end
$var real 64 &# vcc $end
$var reg 1 '# a $end
$var reg 1 (# b $end
$var reg 1 )# c $end
$var reg 1 *# o $end
$upscope $end
$scope module poarta11 $end
$var real 64 +# vcc $end
$var reg 1 ,# a $end
$var reg 1 -# b $end
$var reg 1 .# o $end
$upscope $end
$scope module poarta12 $end
$var real 64 /# vcc $end
$var reg 1 0# a $end
$var reg 1 1# b $end
$var reg 1 2# o $end
$upscope $end
$scope module d0 $end
$var real 64 3# vcc $end
$var reg 1 4# a $end
$var reg 1 5# b $end
$var reg 1 6# o $end
$upscope $end
$scope module bist0 $end
$var real 64 7# vcc $end
$var reg 1 8# pre $end
$var reg 1 9# clr $end
$var reg 1 :# clk $end
$var reg 1 ;# d $end
$var reg 1 <# q $end
$var reg 1 =# qbar $end
$var reg 1 ># u1out $end
$var reg 1 ?# u2out $end
$var reg 1 @# u3out $end
$var reg 1 A# u4out $end
$var reg 1 B# u5out $end
$var reg 1 C# u6out $end
$var reg 1 D# u1outd $end
$var reg 1 E# u2outd $end
$var reg 1 F# u3outd $end
$var reg 1 G# u4outd $end
$var reg 1 H# u5outd $end
$var reg 1 I# u6outd $end
$scope module u1 $end
$var real 64 J# vcc $end
$var reg 1 K# a $end
$var reg 1 L# b $end
$var reg 1 M# c $end
$var reg 1 N# o $end
$upscope $end
$scope module u2 $end
$var real 64 O# vcc $end
$var reg 1 P# a $end
$var reg 1 Q# b $end
$var reg 1 R# c $end
$var reg 1 S# o $end
$upscope $end
$scope module u3 $end
$var real 64 T# vcc $end
$var reg 1 U# a $end
$var reg 1 V# b $end
$var reg 1 W# c $end
$var reg 1 X# o $end
$upscope $end
$scope module u4 $end
$var real 64 Y# vcc $end
$var reg 1 Z# a $end
$var reg 1 [# b $end
$var reg 1 \# c $end
$var reg 1 ]# o $end
$upscope $end
$scope module u5 $end
$var real 64 ^# vcc $end
$var reg 1 _# a $end
$var reg 1 `# b $end
$var reg 1 a# c $end
$var reg 1 b# o $end
$upscope $end
$scope module u6 $end
$var real 64 c# vcc $end
$var reg 1 d# a $end
$var reg 1 e# b $end
$var reg 1 f# c $end
$var reg 1 g# o $end
$upscope $end
$upscope $end
$upscope $end
$upscope $end
$enddefinitions $end
#0
0!
0"
1#
1$
0%
bUUU &
r3.3 '
0(
0)
1*
1+
0,
U-
U.
U/
U0
U1
U2
U3
U4
U5
U6
U7
U8
09
U:
U;
U<
U=
U>
0?
U@
UA
UB
UC
UD
UE
r3.3 F
UG
UH
UI
1J
UK
r3.3 L
1M
0N
0O
UP
UQ
UR
US
1T
1U
1V
UW
1X
UY
UZ
U[
U\
U]
U^
r3.3 _
1`
Ua
Ub
Uc
r3.3 d
Ue
0f
0g
1h
r3.3 i
Uj
0k
Ul
1m
r3.3 n
Uo
0p
Uq
1r
r3.3 s
1t
Uu
Uv
Uw
r3.3 x
Uy
0z
U{
1|
r3.3 }
U!"
U""
U#"
U$"
r3.3 %"
U&"
U'"
U("
U)"
r3.3 *"
U+"
U,"
U-"
r3.3 ."
1/"
00"
01"
U2"
U3"
U4"
U5"
16"
17"
18"
U9"
1:"
U;"
U<"
U="
U>"
U?"
U@"
r3.3 A"
1B"
UC"
UD"
UE"
r3.3 F"
UG"
0H"
0I"
1J"
r3.3 K"
UL"
0M"
UN"
1O"
r3.3 P"
UQ"
0R"
US"
1T"
r3.3 U"
1V"
UW"
UX"
UY"
r3.3 Z"
U["
0\"
U]"
1^"
r3.3 _"
0`"
Ua"
0b"
r3.3 c"
Ud"
Ue"
Uf"
r3.3 g"
1h"
Ui"
Uj"
r3.3 k"
Ul"
Um"
Un"
r3.3 o"
Up"
Uq"
Ur"
r3.3 s"
Ut"
Uu"
Uv"
r3.3 w"
0x"
Uy"
0z"
r3.3 {"
U|"
U}"
U!#
r3.3 "#
U##
U$#
U%#
r3.3 &#
U'#
U(#
U)#
U*#
r3.3 +#
0,#
U-#
U.#
r3.3 /#
U0#
U1#
U2#
r3.3 3#
U4#
U5#
U6#
r3.3 7#
18#
09#
0:#
U;#
U<#
U=#
U>#
1?#
1@#
1A#
UB#
1C#
UD#
UE#
UF#
UG#
UH#
UI#
r3.3 J#
1K#
UL#
UM#
UN#
r3.3 O#
UP#
0Q#
0R#
1S#
r3.3 T#
UU#
0V#
UW#
1X#
r3.3 Y#
UZ#
0[#
U\#
1]#
r3.3 ^#
1_#
U`#
Ua#
Ub#
r3.3 c#
Ud#
0e#
Uf#
1g#
#100000
10
11
12
1:
1<
1G
UK
1R
0S
0W
0Y
1Z
1\
1^
1a
1b
0c
0e
1j
1l
1u
1v
0w
1!"
1""
U$"
1&"
1("
U)"
14"
05"
09"
0;"
1<"
1>"
1@"
1C"
1D"
0E"
0G"
1L"
1N"
1W"
1X"
0Y"
1a"
0b"
1d"
1e"
1f"
1l"
1m"
1n"
1u"
Uv"
1y"
0z"
1}"
U!#
1'#
1)#
U*#
1=#
0>#
0B#
0D#
1E#
1G#
1I#
1L#
1M#
0N#
0P#
1U#
1W#
1`#
1a#
0b#
#200000
1[
1o
1{
1="
1Q"
1]"
1F#
1Z#
1f#
#300000
b000 &
0-
0.
0/
05
06
07
08
0;
0=
0>
0@
0A
0B
0C
0D
0E
0H
0I
0K
0P
0Q
0]
0q
0y
0#"
0$"
0'"
0)"
0+"
0,"
0-"
02"
03"
0?"
0S"
0["
0i"
0j"
0q"
0r"
0t"
0v"
0|"
0!#
0##
0$#
0%#
0(#
0*#
0-#
0.#
00#
01#
02#
04#
05#
06#
0;#
0<#
0H#
0\#
0d#
#5000000
1!
1(
1O
0U
1g
1k
0m
11"
07"
1I"
1M"
0O"
1:#
0@#
1R#
1V#
0X#
#5200000
0[
0o
0{
0="
0Q"
0]"
0F#
0Z#
0f#
#10000000
0!
1"
0(
1)
1N
0O
1U
1f
0g
0k
1m
1p
1z
10"
01"
17"
1H"
0I"
0M"
1O"
1R"
1\"
19#
0:#
1@#
1Q#
0R#
0V#
1X#
1[#
1e#
#10200000
1[
1o
1{
1="
1Q"
1]"
1F#
1Z#
1f#
#15000000
1!
1(
1O
0U
1g
1k
0m
11"
07"
1I"
1M"
0O"
1:#
0@#
1R#
1V#
0X#
#15200000
0[
0o
0{
0="
0Q"
0]"
0F#
0Z#
0f#
#20000000
0!
0(
0O
1U
0g
0k
1m
01"
17"
0I"
0M"
1O"
0:#
1@#
0R#
0V#
1X#
#20200000
1[
1o
1{
1="
1Q"
1]"
1F#
1Z#
1f#
#25000000
1!
1(
1O
0U
1g
1k
0m
11"
07"
1I"
1M"
0O"
1:#
0@#
1R#
1V#
0X#
#25200000
0[
0o
0{
0="
0Q"
0]"
0F#
0Z#
0f#
#30000000
0!
0(
0O
1U
0g
0k
1m
01"
17"
0I"
0M"
1O"
0:#
1@#
0R#
0V#
1X#
#30200000
1[
1o
1{
1="
1Q"
1]"
1F#
1Z#
1f#
#35000000
1!
1(
1O
0U
1g
1k
0m
11"
07"
1I"
1M"
0O"
1:#
0@#
1R#
1V#
0X#
#35200000
0[
0o
0{
0="
0Q"
0]"
0F#
0Z#
0f#
#40000000
0!
0(
0O
1U
0g
0k
1m
01"
17"
0I"
0M"
1O"
0:#
1@#
0R#
0V#
1X#
#40200000
1[
1o
1{
1="
1Q"
1]"
1F#
1Z#
1f#
#45000000
1!
1(
1O
0U
1g
1k
0m
11"
07"
1I"
1M"
0O"
1:#
0@#
1R#
1V#
0X#
#45200000
0[
0o
0{
0="
0Q"
0]"
0F#
0Z#
0f#
#50000000
0!
0(
0O
1U
0g
0k
1m
01"
17"
0I"
0M"
1O"
0:#
1@#
0R#
0V#
1X#
#50200000
1[
1o
1{
1="
1Q"
1]"
1F#
1Z#
1f#
#55000000
1!
0#
1(
0*
0J
0K
1O
0U
1g
1k
0m
11"
07"
1I"
1M"
0O"
1:#
0@#
1R#
1V#
0X#
#55200000
0[
0o
0{
0="
0Q"
0]"
0F#
0Z#
0f#
#60000000
0!
0(
0O
1U
0g
0k
1m
01"
17"
0I"
0M"
1O"
0:#
1@#
0R#
0V#
1X#
#60200000
1[
1o
1{
1="
1Q"
1]"
1F#
1Z#
1f#
#65000000
1!
1%
1(
1,
19
1?
1C
1E
1O
0U
1g
1k
0m
11"
07"
1I"
1M"
0O"
1`"
1b"
1x"
1z"
1,#
1.#
14#
16#
1:#
1;#
0@#
0A#
1R#
1V#
0X#
1\#
0]#
#65100000
1>#
0?#
1@#
1D#
0G#
0L#
1N#
1P#
0S#
0W#
1X#
#65200000
0[
0o
0{
0="
0Q"
0]"
1B#
0E#
0M#
0U#
0`#
1b#
#65300000
#65400000
b001 &
1/
16
18
1;
U=
1@
1#"
1$"
1+"
1-"
12"
1S"
1i"
1j"
1q"
Ur"
1|"
1!#
U##
0%#
1-#
1.#
1<#
0C#
1H#
1d#
0g#
#65500000
02
09
0?
0G
0K
0("
0)"
0a"
0b"
0x"
0z"
0'#
0*#
0,#
1.#
0=#
0I#
0a#
#70000000
0!
0(
0O
1U
0g
0k
1m
01"
17"
0I"
0M"
1O"
0:#
1?#
0R#
1S#
0V#
#70100000
1E#
1M#
1U#
1`#
#70200000
1[
1o
1{
08"
1="
1Q"
0T"
1]"
#70300000
15"
1;"
0>"
0C"
1E"
1G"
0N"
#75000000
1!
0%
1(
0,
1O
0U
1g
1k
0m
11"
06"
1I"
0J"
1M"
0`"
0b"
1:#
0?#
1R#
0S#
1V#
#75100000
19"
0<"
0D"
0L"
0W"
1Y"
0E#
0M#
0U#
0`#
#75200000
0[
0o
0{
#75300000
b011 &
1.
1>
UA
UD
1H
0K
1'"
0)"
13"
0:"
1?"
1["
0^"
1t"
1v"
1$#
U%#
1(#
0*#
U0#
U2#
U5#
16#
#75400000
01
06
08
0:
0<
0@
0C
UE
0""
0$"
0+"
0-"
02"
04"
18"
0@"
0S"
1T"
0X"
0d"
0f"
0l"
0n"
0y"
0z"
0}"
0!#
0-#
0.#
04#
U6#
U;#
UA#
U\#
U]#
#75500000
1>"
1C"
1N"
UG#
UL#
UW#
#80000000
0!
0(
0O
1U
0g
0k
1m
01"
16"
0I"
1J"
0M"
0:#
1?#
0R#
1S#
0V#
#80100000
05"
0;"
1<"
1D"
0E"
0G"
1L"
1W"
U>#
UD#
1E#
1M#
UN#
UP#
1U#
1`#
#80200000
1[
1o
1{
#85000000
1!
1(
1O
0U
1g
1k
0m
11"
07"
1I"
1M"
0O"
1:#
U?#
U@#
1R#
US#
1V#
UX#
#85100000
UE#
UM#
UU#
U`#
#85200000
0[
0o
0{
1:"
0="
0Q"
0]"
1^"
UC#
UF#
UZ#
Uf#
Ug#
#85300000
11
U2
16
U7
18
1:
1<
1@
UB
1C
1E
UG
0K
1""
1$"
U("
U)"
1+"
U,"
1-"
12"
14"
09"
1@"
1S"
1X"
0Y"
Ua"
0b"
1d"
1f"
1l"
1n"
1y"
0z"
1}"
1!#
U'#
U*#
1-#
1.#
U1#
U2#
14#
16#
1;#
U=#
UB#
UI#
1\#
Ua#
Ub#
#85500000
b00U &
0.
U/
U6
07
U8
U;
0>
U@
0A
0B
UC
0D
UE
0H
0K
U#"
U$"
0'"
0)"
U+"
0,"
U-"
U2"
03"
0?"
US"
0["
Ui"
Uj"
Uq"
Ur"
0t"
0v"
U|"
U!#
0$#
0%#
0(#
0*#
U-#
U.#
00#
01#
02#
U4#
05#
U6#
U;#
U<#
UH#
U\#
Ud#
#90000000
0!
0(
0O
1U
0g
0k
1m
01"
17"
0I"
0M"
1O"
0:#
1?#
1@#
0R#
1S#
0V#
1X#
#90100000
1E#
1M#
1U#
1`#
#90200000
1[
1o
1{
U8"
1="
1Q"
UT"
1]"
1F#
1Z#
1f#
#90300000
U5"
U;"
U>"
UC"
UE"
UG"
UN"
#95000000
1!
1(
1O
0U
1g
1k
0m
11"
U6"
U7"
1I"
UJ"
1M"
UO"
1:#
U?#
U@#
1R#
US#
1V#
UX#
#95100000
U9"
U<"
UD"
UL"
UW"
UY"
UE#
UM#
UU#
U`#
#95200000
0[
0o
0{
U="
UQ"
U]"
UF#
UZ#
Uf#
#95300000
b0UU &
U.
U7
U>
UA
UB
UD
UH
0K
U'"
U)"
U,"
U-"
U3"
U:"
U?"
U["
U^"
Ut"
Uv"
U$#
U%#
U(#
U*#
U0#
U1#
U2#
U5#
U6#
#95400000
U1
U:
U<
U""
U$"
U4"
U@"
UX"
Ud"
Uf"
Ul"
Un"
Uy"
0z"
U}"
U!#
#100000000
0!
0(
0O
1U
0g
0k
1m
01"
16"
17"
0I"
1J"
0M"
1O"
0:#
1?#
1@#
0R#
1S#
0V#
1X#
#100100000
1<"
1D"
1L"
1W"
1E#
1M#
1U#
1`#
#100200000
1[
1o
1{
1="
1Q"
1]"
1F#
1Z#
1f#
#105000000
1!
0$
1(
0+
0;
0@
0C
1O
0U
1g
1k
0m
11"
U6"
U7"
1I"
UJ"
1M"
UO"
0h"
0j"
0|"
0!#
0-#
0.#
04#
U6#
1:#
U?#
U@#
1R#
US#
1V#
UX#
#105100000
U<"
UD"
UL"
UW"
UE#
UM#
UU#
U`#
#105200000
0[
0o
0{
U="
UQ"
U]"
UF#
UZ#
Uf#
#110000000
0!
0(
0O
1U
0g
0k
1m
01"
16"
17"
0I"
1J"
0M"
1O"
0:#
1?#
1@#
0R#
1S#
0V#
1X#
#110100000
1<"
1D"
1L"
1W"
1E#
1M#
1U#
1`#
#110200000
1[
1o
1{
1="
1Q"
1]"
1F#
1Z#
1f#
#115000000
1!
1(
1O
0U
1g
1k
0m
11"
U6"
U7"
1I"
UJ"
1M"
UO"
1:#
U?#
U@#
1R#
US#
1V#
UX#
#115100000
U<"
UD"
UL"
UW"
UE#
UM#
UU#
U`#
#115200000
0[
0o
0{
U="
UQ"
U]"
UF#
UZ#
Uf#
#120000000
0!
0(
0O
1U
0g
0k
1m
01"
16"
17"
0I"
1J"
0M"
1O"
0:#
1?#
1@#
0R#
1S#
0V#
1X#
#120100000
1<"
1D"
1L"
1W"
1E#
1M#
1U#
1`#
#120200000
1[
1o
1{
1="
1Q"
1]"
1F#
1Z#
1f#
#125000000
1!
1(
1O
0U
1g
1k
0m
11"
U6"
U7"
1I"
UJ"
1M"
UO"
1:#
U?#
U@#
1R#
US#
1V#
UX#
#125100000
U<"
UD"
UL"
UW"
UE#
UM#
UU#
U`#
#125200000
0[
0o
0{
U="
UQ"
U]"
UF#
UZ#
Uf#
#130000000
0!
0(
0O
1U
0g
0k
1m
01"
16"
17"
0I"
1J"
0M"
1O"
0:#
1?#
1@#
0R#
1S#
0V#
1X#
#130100000
1<"
1D"
1L"
1W"
1E#
1M#
1U#
1`#
#130200000
1[
1o
1{
1="
1Q"
1]"
1F#
1Z#
1f#
#135000000
1!
1$
1(
1+
U;
U@
UC
1O
0U
1g
1k
0m
11"
U6"
U7"
1I"
UJ"
1M"
UO"
1h"
Uj"
U|"
U!#
U-#
U.#
U4#
U6#
1:#
U?#
U@#
1R#
US#
1V#
UX#
#135100000
U<"
UD"
UL"
UW"
UE#
UM#
UU#
U`#
#135200000
0[
0o
0{
U="
UQ"
U]"
UF#
UZ#
Uf#
#140000000
0!
0(
0O
1U
0g
0k
1m
01"
16"
17"
0I"
1J"
0M"
1O"
0:#
1?#
1@#
0R#
1S#
0V#
1X#
#140100000
1<"
1D"
1L"
1W"
1E#
1M#
1U#
1`#
#140200000
1[
1o
1{
1="
1Q"
1]"
1F#
1Z#
1f#
#145000000
1!
1(
1O
0U
1g
1k
0m
11"
U6"
U7"
1I"
UJ"
1M"
UO"
1:#
U?#
U@#
1R#
US#
1V#
UX#
#145100000
U<"
UD"
UL"
UW"
UE#
UM#
UU#
U`#
#145200000
0[
0o
0{
U="
UQ"
U]"
UF#
UZ#
Uf#
#150000000
0!
0(
0O
1U
0g
0k
1m
01"
16"
17"
0I"
1J"
0M"
1O"
0:#
1?#
1@#
0R#
1S#
0V#
1X#
#150100000
1<"
1D"
1L"
1W"
1E#
1M#
1U#
1`#
#150200000
1[
1o
1{
1="
1Q"
1]"
1F#
1Z#
1f#
#155000000
1!
1(
1O
0U
1g
1k
0m
11"
U6"
U7"
1I"
UJ"
1M"
UO"
1:#
U?#
U@#
1R#
US#
1V#
UX#
#155100000
U<"
UD"
UL"
UW"
UE#
UM#
UU#
U`#
#155200000
0[
0o
0{
U="
UQ"
U]"
UF#
UZ#
Uf#
#160000000
0!
0(
0O
1U
0g
0k
1m
01"
16"
17"
0I"
1J"
0M"
1O"
0:#
1?#
1@#
0R#
1S#
0V#
1X#
#160100000
1<"
1D"
1L"
1W"
1E#
1M#
1U#
1`#
#160200000
1[
1o
1{
1="
1Q"
1]"
1F#
1Z#
1f#
#165000000
1!
1(
1O
0U
1g
1k
0m
11"
U6"
U7"
1I"
UJ"
1M"
UO"
1:#
U?#
U@#
1R#
US#
1V#
UX#
#165100000
U<"
UD"
UL"
UW"
UE#
UM#
UU#
U`#
#165200000
0[
0o
0{
U="
UQ"
U]"
UF#
UZ#
Uf#
#170000000
0!
0(
0O
1U
0g
0k
1m
01"
16"
17"
0I"
1J"
0M"
1O"
0:#
1?#
1@#
0R#
1S#
0V#
1X#
#170100000
1<"
1D"
1L"
1W"
1E#
1M#
1U#
1`#
#170200000
1[
1o
1{
1="
1Q"
1]"
1F#
1Z#
1f#
#175000000
1!
1(
1O
0U
1g
1k
0m
11"
U6"
U7"
1I"
UJ"
1M"
UO"
1:#
U?#
U@#
1R#
US#
1V#
UX#
#175100000
U<"
UD"
UL"
UW"
UE#
UM#
UU#
U`#
#175200000
0[
0o
0{
U="
UQ"
U]"
UF#
UZ#
Uf#
#180000000
0!
0(
0O
1U
0g
0k
1m
01"
16"
17"
0I"
1J"
0M"
1O"
0:#
1?#
1@#
0R#
1S#
0V#
1X#
#180100000
1<"
1D"
1L"
1W"
1E#
1M#
1U#
1`#
#180200000
1[
1o
1{
1="
1Q"
1]"
1F#
1Z#
1f#
#185000000
1!
1(
1O
0U
1g
1k
0m
11"
U6"
U7"
1I"
UJ"
1M"
UO"
1:#
U?#
U@#
1R#
US#
1V#
UX#
#185100000
U<"
UD"
UL"
UW"
UE#
UM#
UU#
U`#
#185200000
0[
0o
0{
U="
UQ"
U]"
UF#
UZ#
Uf#
#190000000
0!
0(
0O
1U
0g
0k
1m
01"
16"
17"
0I"
1J"
0M"
1O"
0:#
1?#
1@#
0R#
1S#
0V#
1X#
#190100000
1<"
1D"
1L"
1W"
1E#
1M#
1U#
1`#
#190200000
1[
1o
1{
1="
1Q"
1]"
1F#
1Z#
1f#
#195000000
1!
1(
1O
0U
1g
1k
0m
11"
U6"
U7"
1I"
UJ"
1M"
UO"
1:#
U?#
U@#
1R#
US#
1V#
UX#
#195100000
U<"
UD"
UL"
UW"
UE#
UM#
UU#
U`#
#195200000
0[
0o
0{
U="
UQ"
U]"
UF#
UZ#
Uf#
#200000000
0!
0(
0O
1U
0g
0k
1m
01"
16"
17"
0I"
1J"
0M"
1O"
0:#
1?#
1@#
0R#
1S#
0V#
1X#
#200100000
1<"
1D"
1L"
1W"
1E#
1M#
1U#
1`#
#200200000
1[
1o
1{
1="
1Q"
1]"
1F#
1Z#
1f#
#205000000
1!
1(
1O
0U
1g
1k
0m
11"
U6"
U7"
1I"
UJ"
1M"
UO"
1:#
U?#
U@#
1R#
US#
1V#
UX#
#205100000
U<"
UD"
UL"
UW"
UE#
UM#
UU#
U`#
#205200000
0[
0o
0{
U="
UQ"
U]"
UF#
UZ#
Uf#
#210000000
0!
0(
0O
1U
0g
0k
1m
01"
16"
17"
0I"
1J"
0M"
1O"
0:#
1?#
1@#
0R#
1S#
0V#
1X#
#210100000
1<"
1D"
1L"
1W"
1E#
1M#
1U#
1`#
#210200000
1[
1o
1{
1="
1Q"
1]"
1F#
1Z#
1f#
#215000000
1!
1(
1O
0U
1g
1k
0m
11"
U6"
U7"
1I"
UJ"
1M"
UO"
1:#
U?#
U@#
1R#
US#
1V#
UX#
#215100000
U<"
UD"
UL"
UW"
UE#
UM#
UU#
U`#
#215200000
0[
0o
0{
U="
UQ"
U]"
UF#
UZ#
Uf#
#220000000
0!
0(
0O
1U
0g
0k
1m
01"
16"
17"
0I"
1J"
0M"
1O"
0:#
1?#
1@#
0R#
1S#
0V#
1X#
#220100000
1<"
1D"
1L"
1W"
1E#
1M#
1U#
1`#
#220200000
1[
1o
1{
1="
1Q"
1]"
1F#
1Z#
1f#
#225000000
1!
1(
1O
0U
1g
1k
0m
11"
U6"
U7"
1I"
UJ"
1M"
UO"
1:#
U?#
U@#
1R#
US#
1V#
UX#
#225100000
U<"
UD"
UL"
UW"
UE#
UM#
UU#
U`#
#225200000
0[
0o
0{
U="
UQ"
U]"
UF#
UZ#
Uf#
#230000000
0!
0(
0O
1U
0g
0k
1m
01"
16"
17"
0I"
1J"
0M"
1O"
0:#
1?#
1@#
0R#
1S#
0V#
1X#
#230100000
1<"
1D"
1L"
1W"
1E#
1M#
1U#
1`#
#230200000
1[
1o
1{
1="
1Q"
1]"
1F#
1Z#
1f#
#235000000
1!
1(
1O
0U
1g
1k
0m
11"
U6"
U7"
1I"
UJ"
1M"
UO"
1:#
U?#
U@#
1R#
US#
1V#
UX#
#235100000
U<"
UD"
UL"
UW"
UE#
UM#
UU#
U`#
#235200000
0[
0o
0{
U="
UQ"
U]"
UF#
UZ#
Uf#
#240000000
0!
0(
0O
1U
0g
0k
1m
01"
16"
17"
0I"
1J"
0M"
1O"
0:#
1?#
1@#
0R#
1S#
0V#
1X#
#240100000
1<"
1D"
1L"
1W"
1E#
1M#
1U#
1`#
#240200000
1[
1o
1{
1="
1Q"
1]"
1F#
1Z#
1f#
#245000000
1!
1(
1O
0U
1g
1k
0m
11"
U6"
U7"
1I"
UJ"
1M"
UO"
1:#
U?#
U@#
1R#
US#
1V#
UX#
#245100000
U<"
UD"
UL"
UW"
UE#
UM#
UU#
U`#
#245200000
0[
0o
0{
U="
UQ"
U]"
UF#
UZ#
Uf#
#250000000
0!
0(
0O
1U
0g
0k
1m
01"
16"
17"
0I"
1J"
0M"
1O"
0:#
1?#
1@#
0R#
1S#
0V#
1X#
#250100000
1<"
1D"
1L"
1W"
1E#
1M#
1U#
1`#
#250200000
1[
1o
1{
1="
1Q"
1]"
1F#
1Z#
1f#
#255000000
1!
1(
1O
0U
1g
1k
0m
11"
U6"
U7"
1I"
UJ"
1M"
UO"
1:#
U?#
U@#
1R#
US#
1V#
UX#
#255100000
U<"
UD"
UL"
UW"
UE#
UM#
UU#
U`#
#255200000
0[
0o
0{
U="
UQ"
U]"
UF#
UZ#
Uf#
#260000000
0!
0(
0O
1U
0g
0k
1m
01"
16"
17"
0I"
1J"
0M"
1O"
0:#
1?#
1@#
0R#
1S#
0V#
1X#
#260100000
1<"
1D"
1L"
1W"
1E#
1M#
1U#
1`#
#260200000
1[
1o
1{
1="
1Q"
1]"
1F#
1Z#
1f#
#265000000
1!
1(
1O
0U
1g
1k
0m
11"
U6"
U7"
1I"
UJ"
1M"
UO"
1:#
U?#
U@#
1R#
US#
1V#
UX#
#265100000
U<"
UD"
UL"
UW"
UE#
UM#
UU#
U`#
#265200000
0[
0o
0{
U="
UQ"
U]"
UF#
UZ#
Uf#
